%YAML 1.1
%TAG !u! tag:unity3d.com,2011:
--- !u!1001 &1349263918436746614
PrefabInstance:
  m_ObjectHideFlags: 0
  serializedVersion: 2
  m_Modification:
    m_TransformParent: {fileID: 0}
    m_Modifications:
    - target: {fileID: 3520958439291661910, guid: 120cb25ff8ca7ba41866bbd56bac3023,
        type: 3}
      propertyPath: m_Name
      value: DialogSystem
      objectReference: {fileID: 0}
    - target: {fileID: 3520958439291661911, guid: 120cb25ff8ca7ba41866bbd56bac3023,
        type: 3}
      propertyPath: m_LocalPosition.x
      value: 10.15
      objectReference: {fileID: 0}
    - target: {fileID: 3520958439291661911, guid: 120cb25ff8ca7ba41866bbd56bac3023,
        type: 3}
      propertyPath: m_LocalPosition.y
      value: -12.12
      objectReference: {fileID: 0}
    - target: {fileID: 3520958439291661911, guid: 120cb25ff8ca7ba41866bbd56bac3023,
        type: 3}
      propertyPath: m_LocalPosition.z
      value: -759.63104
      objectReference: {fileID: 0}
    - target: {fileID: 3520958439291661911, guid: 120cb25ff8ca7ba41866bbd56bac3023,
        type: 3}
      propertyPath: m_LocalRotation.x
      value: 0
      objectReference: {fileID: 0}
    - target: {fileID: 3520958439291661911, guid: 120cb25ff8ca7ba41866bbd56bac3023,
        type: 3}
      propertyPath: m_LocalRotation.y
      value: 0
      objectReference: {fileID: 0}
    - target: {fileID: 3520958439291661911, guid: 120cb25ff8ca7ba41866bbd56bac3023,
        type: 3}
      propertyPath: m_LocalRotation.z
      value: 0
      objectReference: {fileID: 0}
    - target: {fileID: 3520958439291661911, guid: 120cb25ff8ca7ba41866bbd56bac3023,
        type: 3}
      propertyPath: m_LocalRotation.w
      value: 1
      objectReference: {fileID: 0}
    - target: {fileID: 3520958439291661911, guid: 120cb25ff8ca7ba41866bbd56bac3023,
        type: 3}
      propertyPath: m_RootOrder
      value: 0
      objectReference: {fileID: 0}
    - target: {fileID: 3520958439291661911, guid: 120cb25ff8ca7ba41866bbd56bac3023,
        type: 3}
      propertyPath: m_LocalEulerAnglesHint.x
      value: 0
      objectReference: {fileID: 0}
    - target: {fileID: 3520958439291661911, guid: 120cb25ff8ca7ba41866bbd56bac3023,
        type: 3}
      propertyPath: m_LocalEulerAnglesHint.y
      value: 0
      objectReference: {fileID: 0}
    - target: {fileID: 3520958439291661911, guid: 120cb25ff8ca7ba41866bbd56bac3023,
        type: 3}
      propertyPath: m_LocalEulerAnglesHint.z
      value: 0
      objectReference: {fileID: 0}
    - target: {fileID: 3520958439873483664, guid: 120cb25ff8ca7ba41866bbd56bac3023,
        type: 3}
      propertyPath: m_LocalPosition.z
      value: 0
      objectReference: {fileID: 0}
    - target: {fileID: 3520958440271283463, guid: 120cb25ff8ca7ba41866bbd56bac3023,
        type: 3}
      propertyPath: dialog.sentences.Array.data[0]
      value: "Das Terminal ist mit Blut \xFCberzogen auf dem Monitor wird wieder
        und wieder eine Nachricht angezeigt."
      objectReference: {fileID: 0}
    - target: {fileID: 3520958440271283463, guid: 120cb25ff8ca7ba41866bbd56bac3023,
        type: 3}
      propertyPath: dialog.sentences.Array.data[1]
      value: "Wer auch immer diese Idee hatte hier her zu kommen war Irre. Wenn das
        einer lie\xDFt lauft lauft oder ihr sterbt."
      objectReference: {fileID: 0}
    m_RemovedComponents: []
  m_SourcePrefab: {fileID: 100100000, guid: 120cb25ff8ca7ba41866bbd56bac3023, type: 3}
