%YAML 1.1
%TAG !u! tag:unity3d.com,2011:
--- !u!1001 &3956934057076204245
PrefabInstance:
  m_ObjectHideFlags: 0
  serializedVersion: 2
  m_Modification:
    m_TransformParent: {fileID: 0}
    m_Modifications:
    - target: {fileID: 3520958439291661910, guid: 120cb25ff8ca7ba41866bbd56bac3023,
        type: 3}
      propertyPath: m_Name
      value: DialogSystem
      objectReference: {fileID: 0}
    - target: {fileID: 3520958439291661911, guid: 120cb25ff8ca7ba41866bbd56bac3023,
        type: 3}
      propertyPath: m_LocalPosition.x
      value: 10.15
      objectReference: {fileID: 0}
    - target: {fileID: 3520958439291661911, guid: 120cb25ff8ca7ba41866bbd56bac3023,
        type: 3}
      propertyPath: m_LocalPosition.y
      value: -12.12
      objectReference: {fileID: 0}
    - target: {fileID: 3520958439291661911, guid: 120cb25ff8ca7ba41866bbd56bac3023,
        type: 3}
      propertyPath: m_LocalPosition.z
      value: -759.63104
      objectReference: {fileID: 0}
    - target: {fileID: 3520958439291661911, guid: 120cb25ff8ca7ba41866bbd56bac3023,
        type: 3}
      propertyPath: m_LocalRotation.x
      value: 0
      objectReference: {fileID: 0}
    - target: {fileID: 3520958439291661911, guid: 120cb25ff8ca7ba41866bbd56bac3023,
        type: 3}
      propertyPath: m_LocalRotation.y
      value: 0
      objectReference: {fileID: 0}
    - target: {fileID: 3520958439291661911, guid: 120cb25ff8ca7ba41866bbd56bac3023,
        type: 3}
      propertyPath: m_LocalRotation.z
      value: 0
      objectReference: {fileID: 0}
    - target: {fileID: 3520958439291661911, guid: 120cb25ff8ca7ba41866bbd56bac3023,
        type: 3}
      propertyPath: m_LocalRotation.w
      value: 1
      objectReference: {fileID: 0}
    - target: {fileID: 3520958439291661911, guid: 120cb25ff8ca7ba41866bbd56bac3023,
        type: 3}
      propertyPath: m_RootOrder
      value: 0
      objectReference: {fileID: 0}
    - target: {fileID: 3520958439291661911, guid: 120cb25ff8ca7ba41866bbd56bac3023,
        type: 3}
      propertyPath: m_LocalEulerAnglesHint.x
      value: 0
      objectReference: {fileID: 0}
    - target: {fileID: 3520958439291661911, guid: 120cb25ff8ca7ba41866bbd56bac3023,
        type: 3}
      propertyPath: m_LocalEulerAnglesHint.y
      value: 0
      objectReference: {fileID: 0}
    - target: {fileID: 3520958439291661911, guid: 120cb25ff8ca7ba41866bbd56bac3023,
        type: 3}
      propertyPath: m_LocalEulerAnglesHint.z
      value: 0
      objectReference: {fileID: 0}
    - target: {fileID: 3520958439873483664, guid: 120cb25ff8ca7ba41866bbd56bac3023,
        type: 3}
      propertyPath: m_LocalPosition.z
      value: 0
      objectReference: {fileID: 0}
    - target: {fileID: 3520958440271283463, guid: 120cb25ff8ca7ba41866bbd56bac3023,
        type: 3}
      propertyPath: dialog.sentences.Array.size
      value: 2
      objectReference: {fileID: 0}
    - target: {fileID: 3520958440271283463, guid: 120cb25ff8ca7ba41866bbd56bac3023,
        type: 3}
      propertyPath: dialog.sentences.Array.data[0]
      value: "Der Monitor flackert und das Terminal scheint nicht mehr ganz in Ordnung
        zu sein. Auf dem Monitor steht dr\xFCcken Sie Enter um fortzufahren."
      objectReference: {fileID: 0}
    - target: {fileID: 3520958440271283463, guid: 120cb25ff8ca7ba41866bbd56bac3023,
        type: 3}
      propertyPath: dialog.sentences.Array.data[1]
      value: "Es knackt und knistert. Nach einer kurzen weile wird der Monitor dunkel
        und das Terminal schaltet sich ab. Durch einen Scan deines Anzuges kannst
        du feststellen, dass die Energiezelle des Terminal starke besch\xE4digungen
        durch eine S\xE4ure aufwei\xDFt."
      objectReference: {fileID: 0}
    m_RemovedComponents: []
  m_SourcePrefab: {fileID: 100100000, guid: 120cb25ff8ca7ba41866bbd56bac3023, type: 3}
