%YAML 1.1
%TAG !u! tag:unity3d.com,2011:
--- !u!74 &7400000
AnimationClip:
  m_ObjectHideFlags: 0
  m_CorrespondingSourceObject: {fileID: 0}
  m_PrefabInstance: {fileID: 0}
  m_PrefabAsset: {fileID: 0}
  m_Name: Explosion_A
  serializedVersion: 6
  m_Legacy: 0
  m_Compressed: 0
  m_UseHighQualityCurve: 1
  m_RotationCurves: []
  m_CompressedRotationCurves: []
  m_EulerCurves: []
  m_PositionCurves: []
  m_ScaleCurves: []
  m_FloatCurves: []
  m_PPtrCurves:
  - curve:
    - time: 0
      value: {fileID: 21300000, guid: d12f5cb419b0c401ebd311ade788b5bf, type: 3}
    - time: 0.083333336
      value: {fileID: 21300000, guid: 90f58469533ad432e8ce5ae67ce28f3f, type: 3}
    - time: 0.16666667
      value: {fileID: 21300000, guid: 178aba52970a642409fcbc30549ca4a7, type: 3}
    - time: 0.25
      value: {fileID: 21300000, guid: 744240bda4b41410fafe7a073d945891, type: 3}
    - time: 0.33333334
      value: {fileID: 21300000, guid: 563e5c6e76fa749cf8d2e00e12622eb5, type: 3}
    - time: 0.41666666
      value: {fileID: 21300000, guid: 0b511be7bb02a48e8aaa3c25cda1ea91, type: 3}
    - time: 0.5
      value: {fileID: 21300000, guid: e1a0711d42cfa476ba1268d454fac5e6, type: 3}
    - time: 0.5833333
      value: {fileID: 21300000, guid: ccff6ed1ec26e492c92fc43469c4c281, type: 3}
    - time: 0.6666667
      value: {fileID: 21300000, guid: 105aceb6ff714a64ea6eaa397c856a88, type: 3}
    - time: 0.75
      value: {fileID: 21300000, guid: f17259baffe78334fb250590a584cac1, type: 3}
    - time: 0.8333333
      value: {fileID: 21300000, guid: c76f5e9a6e64d9e48bab8954d37ed9e7, type: 3}
    attribute: m_Sprite
    path: 
    classID: 212
    script: {fileID: 0}
  m_SampleRate: 12
  m_WrapMode: 0
  m_Bounds:
    m_Center: {x: 0, y: 0, z: 0}
    m_Extent: {x: 0, y: 0, z: 0}
  m_ClipBindingConstant:
    genericBindings:
    - serializedVersion: 2
      path: 0
      attribute: 0
      script: {fileID: 0}
      typeID: 212
      customType: 23
      isPPtrCurve: 1
    pptrCurveMapping:
    - {fileID: 21300000, guid: d12f5cb419b0c401ebd311ade788b5bf, type: 3}
    - {fileID: 21300000, guid: 90f58469533ad432e8ce5ae67ce28f3f, type: 3}
    - {fileID: 21300000, guid: 178aba52970a642409fcbc30549ca4a7, type: 3}
    - {fileID: 21300000, guid: 744240bda4b41410fafe7a073d945891, type: 3}
    - {fileID: 21300000, guid: 563e5c6e76fa749cf8d2e00e12622eb5, type: 3}
    - {fileID: 21300000, guid: 0b511be7bb02a48e8aaa3c25cda1ea91, type: 3}
    - {fileID: 21300000, guid: e1a0711d42cfa476ba1268d454fac5e6, type: 3}
    - {fileID: 21300000, guid: ccff6ed1ec26e492c92fc43469c4c281, type: 3}
    - {fileID: 21300000, guid: 105aceb6ff714a64ea6eaa397c856a88, type: 3}
    - {fileID: 21300000, guid: f17259baffe78334fb250590a584cac1, type: 3}
    - {fileID: 21300000, guid: c76f5e9a6e64d9e48bab8954d37ed9e7, type: 3}
  m_AnimationClipSettings:
    serializedVersion: 2
    m_AdditiveReferencePoseClip: {fileID: 0}
    m_AdditiveReferencePoseTime: 0
    m_StartTime: 0
    m_StopTime: 0.9166667
    m_OrientationOffsetY: 0
    m_Level: 0
    m_CycleOffset: 0
    m_HasAdditiveReferencePose: 0
    m_LoopTime: 0
    m_LoopBlend: 0
    m_LoopBlendOrientation: 0
    m_LoopBlendPositionY: 0
    m_LoopBlendPositionXZ: 0
    m_KeepOriginalOrientation: 0
    m_KeepOriginalPositionY: 1
    m_KeepOriginalPositionXZ: 0
    m_HeightFromFeet: 0
    m_Mirror: 0
  m_EditorCurves: []
  m_EulerEditorCurves: []
  m_HasGenericRootTransform: 0
  m_HasMotionFloatCurves: 0
  m_Events: []
