%YAML 1.1
%TAG !u! tag:unity3d.com,2011:
--- !u!74 &7400000
AnimationClip:
  m_ObjectHideFlags: 0
  m_CorrespondingSourceObject: {fileID: 0}
  m_PrefabInstance: {fileID: 0}
  m_PrefabAsset: {fileID: 0}
  m_Name: New Animation
  serializedVersion: 6
  m_Legacy: 0
  m_Compressed: 0
  m_UseHighQualityCurve: 1
  m_RotationCurves: []
  m_CompressedRotationCurves: []
  m_EulerCurves: []
  m_PositionCurves: []
  m_ScaleCurves: []
  m_FloatCurves: []
  m_PPtrCurves:
  - curve:
    - time: 0
      value: {fileID: 21300000, guid: 4c5a082b991474cfab4d4d7c8f8f3a88, type: 3}
    - time: 0.083333336
      value: {fileID: 21300000, guid: b9585b1723a55475aae8bfb1271d531f, type: 3}
    - time: 0.16666667
      value: {fileID: 21300000, guid: 36a20da4a7a954ee2a5bb457ca6ded1a, type: 3}
    - time: 0.25
      value: {fileID: 21300000, guid: 58edf9075605b4773a91fac0febda566, type: 3}
    - time: 0.33333334
      value: {fileID: 21300000, guid: 4aa02c95a5ce6410fa9f7e420122c4e5, type: 3}
    - time: 0.41666666
      value: {fileID: 21300000, guid: eac090c5896fe4f9fb047d8996a261bb, type: 3}
    - time: 0.5
      value: {fileID: 21300000, guid: af49bb5438b144c4a9ac728c92421223, type: 3}
    - time: 0.5833333
      value: {fileID: 21300000, guid: 51257215225714359bf915dceae26082, type: 3}
    - time: 0.6666667
      value: {fileID: 21300000, guid: b6bab7d530a074e1ea3bab6ecb369226, type: 3}
    - time: 0.75
      value: {fileID: 21300000, guid: 974b337f5e51a47cda873e6fd4231ec0, type: 3}
    - time: 0.8333333
      value: {fileID: 21300000, guid: 47d4531c97264a640baa95de1ab5a001, type: 3}
    - time: 0.9166667
      value: {fileID: 21300000, guid: 8f51f792ffac3664d889bf39d52dc8e2, type: 3}
    - time: 1
      value: {fileID: 21300000, guid: 4f8a82e895a37ac4b8358c7941eea353, type: 3}
    attribute: m_Sprite
    path: 
    classID: 212
    script: {fileID: 0}
  m_SampleRate: 12
  m_WrapMode: 0
  m_Bounds:
    m_Center: {x: 0, y: 0, z: 0}
    m_Extent: {x: 0, y: 0, z: 0}
  m_ClipBindingConstant:
    genericBindings:
    - serializedVersion: 2
      path: 0
      attribute: 0
      script: {fileID: 0}
      typeID: 212
      customType: 23
      isPPtrCurve: 1
    pptrCurveMapping:
    - {fileID: 21300000, guid: 4c5a082b991474cfab4d4d7c8f8f3a88, type: 3}
    - {fileID: 21300000, guid: b9585b1723a55475aae8bfb1271d531f, type: 3}
    - {fileID: 21300000, guid: 36a20da4a7a954ee2a5bb457ca6ded1a, type: 3}
    - {fileID: 21300000, guid: 58edf9075605b4773a91fac0febda566, type: 3}
    - {fileID: 21300000, guid: 4aa02c95a5ce6410fa9f7e420122c4e5, type: 3}
    - {fileID: 21300000, guid: eac090c5896fe4f9fb047d8996a261bb, type: 3}
    - {fileID: 21300000, guid: af49bb5438b144c4a9ac728c92421223, type: 3}
    - {fileID: 21300000, guid: 51257215225714359bf915dceae26082, type: 3}
    - {fileID: 21300000, guid: b6bab7d530a074e1ea3bab6ecb369226, type: 3}
    - {fileID: 21300000, guid: 974b337f5e51a47cda873e6fd4231ec0, type: 3}
    - {fileID: 21300000, guid: 47d4531c97264a640baa95de1ab5a001, type: 3}
    - {fileID: 21300000, guid: 8f51f792ffac3664d889bf39d52dc8e2, type: 3}
    - {fileID: 21300000, guid: 4f8a82e895a37ac4b8358c7941eea353, type: 3}
  m_AnimationClipSettings:
    serializedVersion: 2
    m_AdditiveReferencePoseClip: {fileID: 0}
    m_AdditiveReferencePoseTime: 0
    m_StartTime: 0
    m_StopTime: 1.0833334
    m_OrientationOffsetY: 0
    m_Level: 0
    m_CycleOffset: 0
    m_HasAdditiveReferencePose: 0
    m_LoopTime: 0
    m_LoopBlend: 0
    m_LoopBlendOrientation: 0
    m_LoopBlendPositionY: 0
    m_LoopBlendPositionXZ: 0
    m_KeepOriginalOrientation: 0
    m_KeepOriginalPositionY: 1
    m_KeepOriginalPositionXZ: 0
    m_HeightFromFeet: 0
    m_Mirror: 0
  m_EditorCurves: []
  m_EulerEditorCurves: []
  m_HasGenericRootTransform: 0
  m_HasMotionFloatCurves: 0
  m_Events: []
