%YAML 1.1
%TAG !u! tag:unity3d.com,2011:
--- !u!78 &1
TagManager:
  serializedVersion: 2
  tags:
  - Enemy
  - Blocks
  - Smoke
  - UI
  - Bullet
  - Tester
  - Spike
  - EnemyDeath
  - turn
  - GameManager
  - MainMenu
  - LoginMenu
  - Dialog
  - DialogButton
  - GameOver
  - GameOverForYou
  - LevelCompleted
  layers:
  - Default
  - TransparentFX
  - Ignore Raycast
  - 
  - Water
  - UI
  - 
  - 
  - Player
  - 
  - 
  - 
  - 
  - 
  - 
  - 
  - 
  - 
  - 
  - 
  - 
  - 
  - 
  - 
  - 
  - 
  - 
  - 
  - 
  - 
  - 
  - 
  m_SortingLayers:
  - name: Default
    uniqueID: 0
    locked: 0
