Base path: 'D:/unity3s/2019.4.0f1/Editor/Data', plugins path 'D:/unity3s/2019.4.0f1/Editor/Data/PlaybackEngines'
Cmd: initializeCompiler
Cmd: compileComputeKernel
  api=4 insize=18731 outsize=8873 ok=1
Cmd: compileComputeKernel
  api=4 insize=1864 outsize=561 ok=1
Cmd: compileComputeKernel
  api=4 insize=1957 outsize=559 ok=1
