%YAML 1.1
%TAG !u! tag:unity3d.com,2011:
--- !u!74 &7400000
AnimationClip:
  m_ObjectHideFlags: 0
  m_CorrespondingSourceObject: {fileID: 0}
  m_PrefabInstance: {fileID: 0}
  m_PrefabAsset: {fileID: 0}
  m_Name: Octo_animation.01anim
  serializedVersion: 6
  m_Legacy: 0
  m_Compressed: 0
  m_UseHighQualityCurve: 1
  m_RotationCurves: []
  m_CompressedRotationCurves: []
  m_EulerCurves: []
  m_PositionCurves: []
  m_ScaleCurves: []
  m_FloatCurves: []
  m_PPtrCurves:
  - curve:
    - time: 0
      value: {fileID: 21300000, guid: 67acd6eee39494a879a454c00d35046e, type: 3}
    - time: 0.11111111
      value: {fileID: 21300000, guid: 7a7547146c88549438de340435fe71b2, type: 3}
    - time: 0.22222222
      value: {fileID: 21300000, guid: 16da3258dced040b78661a83d478b22c, type: 3}
    - time: 0.33333334
      value: {fileID: 21300000, guid: a01f62f0c9efd42eba5d29c0d2cd10ea, type: 3}
    - time: 0.44444445
      value: {fileID: 21300000, guid: d8381e3976e8244a3b0b77f56eefab70, type: 3}
    - time: 0.5555556
      value: {fileID: 21300000, guid: 69cd23210296b4d0b9ea0d7a3cd9b1e5, type: 3}
    attribute: m_Sprite
    path: 
    classID: 212
    script: {fileID: 0}
  m_SampleRate: 9
  m_WrapMode: 0
  m_Bounds:
    m_Center: {x: 0, y: 0, z: 0}
    m_Extent: {x: 0, y: 0, z: 0}
  m_ClipBindingConstant:
    genericBindings:
    - serializedVersion: 2
      path: 0
      attribute: 0
      script: {fileID: 0}
      typeID: 212
      customType: 23
      isPPtrCurve: 1
    pptrCurveMapping:
    - {fileID: 21300000, guid: 67acd6eee39494a879a454c00d35046e, type: 3}
    - {fileID: 21300000, guid: 7a7547146c88549438de340435fe71b2, type: 3}
    - {fileID: 21300000, guid: 16da3258dced040b78661a83d478b22c, type: 3}
    - {fileID: 21300000, guid: a01f62f0c9efd42eba5d29c0d2cd10ea, type: 3}
    - {fileID: 21300000, guid: d8381e3976e8244a3b0b77f56eefab70, type: 3}
    - {fileID: 21300000, guid: 69cd23210296b4d0b9ea0d7a3cd9b1e5, type: 3}
  m_AnimationClipSettings:
    serializedVersion: 2
    m_AdditiveReferencePoseClip: {fileID: 0}
    m_AdditiveReferencePoseTime: 0
    m_StartTime: 0
    m_StopTime: 0.6666667
    m_OrientationOffsetY: 0
    m_Level: 0
    m_CycleOffset: 0
    m_HasAdditiveReferencePose: 0
    m_LoopTime: 1
    m_LoopBlend: 0
    m_LoopBlendOrientation: 0
    m_LoopBlendPositionY: 0
    m_LoopBlendPositionXZ: 0
    m_KeepOriginalOrientation: 0
    m_KeepOriginalPositionY: 1
    m_KeepOriginalPositionXZ: 0
    m_HeightFromFeet: 0
    m_Mirror: 0
  m_EditorCurves: []
  m_EulerEditorCurves: []
  m_HasGenericRootTransform: 0
  m_HasMotionFloatCurves: 0
  m_Events: []
