%YAML 1.1
%TAG !u! tag:unity3d.com,2011:
--- !u!74 &7400000
AnimationClip:
  m_ObjectHideFlags: 0
  m_CorrespondingSourceObject: {fileID: 0}
  m_PrefabInstance: {fileID: 0}
  m_PrefabAsset: {fileID: 0}
  m_Name: Player_run_and_shot
  serializedVersion: 6
  m_Legacy: 0
  m_Compressed: 0
  m_UseHighQualityCurve: 1
  m_RotationCurves: []
  m_CompressedRotationCurves: []
  m_EulerCurves: []
  m_PositionCurves: []
  m_ScaleCurves: []
  m_FloatCurves: []
  m_PPtrCurves:
  - curve:
    - time: 0
      value: {fileID: 21300000, guid: d58fce37e5779432a92326f97452781b, type: 3}
    - time: 0.083333336
      value: {fileID: 21300000, guid: daf97b3af716e4f43a881ec77cec632a, type: 3}
    - time: 0.16666667
      value: {fileID: 21300000, guid: 6c2828ee666b8459a965b5fa132aa927, type: 3}
    - time: 0.25
      value: {fileID: 21300000, guid: 59f8d8688571a49e7960cacae9fb3d07, type: 3}
    - time: 0.33333334
      value: {fileID: 21300000, guid: 1eda49e1b9a8b4ffbb676448f1df546b, type: 3}
    - time: 0.41666666
      value: {fileID: 21300000, guid: 148af4355a9534c88b4d88fd3a1c581f, type: 3}
    - time: 0.5
      value: {fileID: 21300000, guid: 9aa18040731904d79afd670e2953be6c, type: 3}
    - time: 0.5833333
      value: {fileID: 21300000, guid: da3cf664854cb4a1892699c0c8a81923, type: 3}
    - time: 0.6666667
      value: {fileID: 21300000, guid: 0d48d2d6d338846c682bddd0f13e6093, type: 3}
    - time: 0.75
      value: {fileID: 21300000, guid: 289dd1c07c83d49d09adca2ef6e78182, type: 3}
    attribute: m_Sprite
    path: 
    classID: 212
    script: {fileID: 0}
  m_SampleRate: 12
  m_WrapMode: 0
  m_Bounds:
    m_Center: {x: 0, y: 0, z: 0}
    m_Extent: {x: 0, y: 0, z: 0}
  m_ClipBindingConstant:
    genericBindings:
    - serializedVersion: 2
      path: 0
      attribute: 0
      script: {fileID: 0}
      typeID: 212
      customType: 23
      isPPtrCurve: 1
    pptrCurveMapping:
    - {fileID: 21300000, guid: d58fce37e5779432a92326f97452781b, type: 3}
    - {fileID: 21300000, guid: daf97b3af716e4f43a881ec77cec632a, type: 3}
    - {fileID: 21300000, guid: 6c2828ee666b8459a965b5fa132aa927, type: 3}
    - {fileID: 21300000, guid: 59f8d8688571a49e7960cacae9fb3d07, type: 3}
    - {fileID: 21300000, guid: 1eda49e1b9a8b4ffbb676448f1df546b, type: 3}
    - {fileID: 21300000, guid: 148af4355a9534c88b4d88fd3a1c581f, type: 3}
    - {fileID: 21300000, guid: 9aa18040731904d79afd670e2953be6c, type: 3}
    - {fileID: 21300000, guid: da3cf664854cb4a1892699c0c8a81923, type: 3}
    - {fileID: 21300000, guid: 0d48d2d6d338846c682bddd0f13e6093, type: 3}
    - {fileID: 21300000, guid: 289dd1c07c83d49d09adca2ef6e78182, type: 3}
  m_AnimationClipSettings:
    serializedVersion: 2
    m_AdditiveReferencePoseClip: {fileID: 0}
    m_AdditiveReferencePoseTime: 0
    m_StartTime: 0
    m_StopTime: 0.8333333
    m_OrientationOffsetY: 0
    m_Level: 0
    m_CycleOffset: 0
    m_HasAdditiveReferencePose: 0
    m_LoopTime: 1
    m_LoopBlend: 0
    m_LoopBlendOrientation: 0
    m_LoopBlendPositionY: 0
    m_LoopBlendPositionXZ: 0
    m_KeepOriginalOrientation: 0
    m_KeepOriginalPositionY: 1
    m_KeepOriginalPositionXZ: 0
    m_HeightFromFeet: 0
    m_Mirror: 0
  m_EditorCurves: []
  m_EulerEditorCurves: []
  m_HasGenericRootTransform: 0
  m_HasMotionFloatCurves: 0
  m_Events: []
