%YAML 1.1
%TAG !u! tag:unity3d.com,2011:
--- !u!1 &1132172142063285641
GameObject:
  m_ObjectHideFlags: 0
  m_CorrespondingSourceObject: {fileID: 0}
  m_PrefabInstance: {fileID: 0}
  m_PrefabAsset: {fileID: 0}
  serializedVersion: 6
  m_Component:
  - component: {fileID: 6535206026627143002}
  - component: {fileID: 3050482730234851103}
  m_Layer: 31
  m_Name: New Palette
  m_TagString: Untagged
  m_Icon: {fileID: 0}
  m_NavMeshLayer: 0
  m_StaticEditorFlags: 0
  m_IsActive: 1
--- !u!4 &6535206026627143002
Transform:
  m_ObjectHideFlags: 0
  m_CorrespondingSourceObject: {fileID: 0}
  m_PrefabInstance: {fileID: 0}
  m_PrefabAsset: {fileID: 0}
  m_GameObject: {fileID: 1132172142063285641}
  m_LocalRotation: {x: 0, y: 0, z: 0, w: 1}
  m_LocalPosition: {x: 0, y: 0, z: 0}
  m_LocalScale: {x: 1, y: 1, z: 1}
  m_Children:
  - {fileID: 1877711013894608958}
  m_Father: {fileID: 0}
  m_RootOrder: 0
  m_LocalEulerAnglesHint: {x: 0, y: 0, z: 0}
--- !u!156049354 &3050482730234851103
Grid:
  m_ObjectHideFlags: 0
  m_CorrespondingSourceObject: {fileID: 0}
  m_PrefabInstance: {fileID: 0}
  m_PrefabAsset: {fileID: 0}
  m_GameObject: {fileID: 1132172142063285641}
  m_Enabled: 1
  m_CellSize: {x: 1, y: 1, z: 0}
  m_CellGap: {x: 0, y: 0, z: 0}
  m_CellLayout: 0
  m_CellSwizzle: 0
--- !u!1 &6827468863890076869
GameObject:
  m_ObjectHideFlags: 0
  m_CorrespondingSourceObject: {fileID: 0}
  m_PrefabInstance: {fileID: 0}
  m_PrefabAsset: {fileID: 0}
  serializedVersion: 6
  m_Component:
  - component: {fileID: 1877711013894608958}
  - component: {fileID: 2940369134240649446}
  - component: {fileID: 8632658092918222115}
  m_Layer: 31
  m_Name: Layer1
  m_TagString: Untagged
  m_Icon: {fileID: 0}
  m_NavMeshLayer: 0
  m_StaticEditorFlags: 0
  m_IsActive: 1
--- !u!4 &1877711013894608958
Transform:
  m_ObjectHideFlags: 0
  m_CorrespondingSourceObject: {fileID: 0}
  m_PrefabInstance: {fileID: 0}
  m_PrefabAsset: {fileID: 0}
  m_GameObject: {fileID: 6827468863890076869}
  m_LocalRotation: {x: -0, y: -0, z: -0, w: 1}
  m_LocalPosition: {x: 0, y: 0, z: 0}
  m_LocalScale: {x: 1, y: 1, z: 1}
  m_Children: []
  m_Father: {fileID: 6535206026627143002}
  m_RootOrder: 0
  m_LocalEulerAnglesHint: {x: 0, y: 0, z: 0}
--- !u!1839735485 &2940369134240649446
Tilemap:
  m_ObjectHideFlags: 0
  m_CorrespondingSourceObject: {fileID: 0}
  m_PrefabInstance: {fileID: 0}
  m_PrefabAsset: {fileID: 0}
  m_GameObject: {fileID: 6827468863890076869}
  m_Enabled: 1
  m_Tiles:
  - first: {x: -1, y: -3, z: 0}
    second:
      serializedVersion: 2
      m_TileIndex: 52
      m_TileSpriteIndex: 52
      m_TileMatrixIndex: 0
      m_TileColorIndex: 0
      m_TileObjectToInstantiateIndex: 65535
      m_AllTileFlags: 1073741825
  - first: {x: 0, y: -3, z: 0}
    second:
      serializedVersion: 2
      m_TileIndex: 53
      m_TileSpriteIndex: 53
      m_TileMatrixIndex: 0
      m_TileColorIndex: 0
      m_TileObjectToInstantiateIndex: 65535
      m_AllTileFlags: 1073741825
  - first: {x: 1, y: -3, z: 0}
    second:
      serializedVersion: 2
      m_TileIndex: 54
      m_TileSpriteIndex: 54
      m_TileMatrixIndex: 0
      m_TileColorIndex: 0
      m_TileObjectToInstantiateIndex: 65535
      m_AllTileFlags: 1073741825
  - first: {x: 2, y: -3, z: 0}
    second:
      serializedVersion: 2
      m_TileIndex: 55
      m_TileSpriteIndex: 55
      m_TileMatrixIndex: 0
      m_TileColorIndex: 0
      m_TileObjectToInstantiateIndex: 65535
      m_AllTileFlags: 1073741825
  - first: {x: 3, y: -3, z: 0}
    second:
      serializedVersion: 2
      m_TileIndex: 56
      m_TileSpriteIndex: 56
      m_TileMatrixIndex: 0
      m_TileColorIndex: 0
      m_TileObjectToInstantiateIndex: 65535
      m_AllTileFlags: 1073741825
  - first: {x: 4, y: -3, z: 0}
    second:
      serializedVersion: 2
      m_TileIndex: 57
      m_TileSpriteIndex: 57
      m_TileMatrixIndex: 0
      m_TileColorIndex: 0
      m_TileObjectToInstantiateIndex: 65535
      m_AllTileFlags: 1073741825
  - first: {x: 5, y: -3, z: 0}
    second:
      serializedVersion: 2
      m_TileIndex: 58
      m_TileSpriteIndex: 58
      m_TileMatrixIndex: 0
      m_TileColorIndex: 0
      m_TileObjectToInstantiateIndex: 65535
      m_AllTileFlags: 1073741825
  - first: {x: 6, y: -3, z: 0}
    second:
      serializedVersion: 2
      m_TileIndex: 59
      m_TileSpriteIndex: 59
      m_TileMatrixIndex: 0
      m_TileColorIndex: 0
      m_TileObjectToInstantiateIndex: 65535
      m_AllTileFlags: 1073741825
  - first: {x: 7, y: -3, z: 0}
    second:
      serializedVersion: 2
      m_TileIndex: 60
      m_TileSpriteIndex: 60
      m_TileMatrixIndex: 0
      m_TileColorIndex: 0
      m_TileObjectToInstantiateIndex: 65535
      m_AllTileFlags: 1073741825
  - first: {x: -2, y: -2, z: 0}
    second:
      serializedVersion: 2
      m_TileIndex: 40
      m_TileSpriteIndex: 40
      m_TileMatrixIndex: 0
      m_TileColorIndex: 0
      m_TileObjectToInstantiateIndex: 65535
      m_AllTileFlags: 1073741825
  - first: {x: -1, y: -2, z: 0}
    second:
      serializedVersion: 2
      m_TileIndex: 41
      m_TileSpriteIndex: 41
      m_TileMatrixIndex: 0
      m_TileColorIndex: 0
      m_TileObjectToInstantiateIndex: 65535
      m_AllTileFlags: 1073741825
  - first: {x: 0, y: -2, z: 0}
    second:
      serializedVersion: 2
      m_TileIndex: 42
      m_TileSpriteIndex: 42
      m_TileMatrixIndex: 0
      m_TileColorIndex: 0
      m_TileObjectToInstantiateIndex: 65535
      m_AllTileFlags: 1073741825
  - first: {x: 1, y: -2, z: 0}
    second:
      serializedVersion: 2
      m_TileIndex: 43
      m_TileSpriteIndex: 43
      m_TileMatrixIndex: 0
      m_TileColorIndex: 0
      m_TileObjectToInstantiateIndex: 65535
      m_AllTileFlags: 1073741825
  - first: {x: 2, y: -2, z: 0}
    second:
      serializedVersion: 2
      m_TileIndex: 44
      m_TileSpriteIndex: 44
      m_TileMatrixIndex: 0
      m_TileColorIndex: 0
      m_TileObjectToInstantiateIndex: 65535
      m_AllTileFlags: 1073741825
  - first: {x: 3, y: -2, z: 0}
    second:
      serializedVersion: 2
      m_TileIndex: 45
      m_TileSpriteIndex: 45
      m_TileMatrixIndex: 0
      m_TileColorIndex: 0
      m_TileObjectToInstantiateIndex: 65535
      m_AllTileFlags: 1073741825
  - first: {x: 4, y: -2, z: 0}
    second:
      serializedVersion: 2
      m_TileIndex: 46
      m_TileSpriteIndex: 46
      m_TileMatrixIndex: 0
      m_TileColorIndex: 0
      m_TileObjectToInstantiateIndex: 65535
      m_AllTileFlags: 1073741825
  - first: {x: 5, y: -2, z: 0}
    second:
      serializedVersion: 2
      m_TileIndex: 47
      m_TileSpriteIndex: 47
      m_TileMatrixIndex: 0
      m_TileColorIndex: 0
      m_TileObjectToInstantiateIndex: 65535
      m_AllTileFlags: 1073741825
  - first: {x: 6, y: -2, z: 0}
    second:
      serializedVersion: 2
      m_TileIndex: 48
      m_TileSpriteIndex: 48
      m_TileMatrixIndex: 0
      m_TileColorIndex: 0
      m_TileObjectToInstantiateIndex: 65535
      m_AllTileFlags: 1073741825
  - first: {x: 7, y: -2, z: 0}
    second:
      serializedVersion: 2
      m_TileIndex: 49
      m_TileSpriteIndex: 49
      m_TileMatrixIndex: 0
      m_TileColorIndex: 0
      m_TileObjectToInstantiateIndex: 65535
      m_AllTileFlags: 1073741825
  - first: {x: 8, y: -2, z: 0}
    second:
      serializedVersion: 2
      m_TileIndex: 50
      m_TileSpriteIndex: 50
      m_TileMatrixIndex: 0
      m_TileColorIndex: 0
      m_TileObjectToInstantiateIndex: 65535
      m_AllTileFlags: 1073741825
  - first: {x: 9, y: -2, z: 0}
    second:
      serializedVersion: 2
      m_TileIndex: 51
      m_TileSpriteIndex: 51
      m_TileMatrixIndex: 0
      m_TileColorIndex: 0
      m_TileObjectToInstantiateIndex: 65535
      m_AllTileFlags: 1073741825
  - first: {x: -2, y: -1, z: 0}
    second:
      serializedVersion: 2
      m_TileIndex: 29
      m_TileSpriteIndex: 29
      m_TileMatrixIndex: 0
      m_TileColorIndex: 0
      m_TileObjectToInstantiateIndex: 65535
      m_AllTileFlags: 1073741825
  - first: {x: -1, y: -1, z: 0}
    second:
      serializedVersion: 2
      m_TileIndex: 30
      m_TileSpriteIndex: 30
      m_TileMatrixIndex: 0
      m_TileColorIndex: 0
      m_TileObjectToInstantiateIndex: 65535
      m_AllTileFlags: 1073741825
  - first: {x: 0, y: -1, z: 0}
    second:
      serializedVersion: 2
      m_TileIndex: 31
      m_TileSpriteIndex: 31
      m_TileMatrixIndex: 0
      m_TileColorIndex: 0
      m_TileObjectToInstantiateIndex: 65535
      m_AllTileFlags: 1073741825
  - first: {x: 1, y: -1, z: 0}
    second:
      serializedVersion: 2
      m_TileIndex: 32
      m_TileSpriteIndex: 32
      m_TileMatrixIndex: 0
      m_TileColorIndex: 0
      m_TileObjectToInstantiateIndex: 65535
      m_AllTileFlags: 1073741825
  - first: {x: 2, y: -1, z: 0}
    second:
      serializedVersion: 2
      m_TileIndex: 33
      m_TileSpriteIndex: 33
      m_TileMatrixIndex: 0
      m_TileColorIndex: 0
      m_TileObjectToInstantiateIndex: 65535
      m_AllTileFlags: 1073741825
  - first: {x: 3, y: -1, z: 0}
    second:
      serializedVersion: 2
      m_TileIndex: 34
      m_TileSpriteIndex: 34
      m_TileMatrixIndex: 0
      m_TileColorIndex: 0
      m_TileObjectToInstantiateIndex: 65535
      m_AllTileFlags: 1073741825
  - first: {x: 4, y: -1, z: 0}
    second:
      serializedVersion: 2
      m_TileIndex: 35
      m_TileSpriteIndex: 35
      m_TileMatrixIndex: 0
      m_TileColorIndex: 0
      m_TileObjectToInstantiateIndex: 65535
      m_AllTileFlags: 1073741825
  - first: {x: 5, y: -1, z: 0}
    second:
      serializedVersion: 2
      m_TileIndex: 36
      m_TileSpriteIndex: 36
      m_TileMatrixIndex: 0
      m_TileColorIndex: 0
      m_TileObjectToInstantiateIndex: 65535
      m_AllTileFlags: 1073741825
  - first: {x: 6, y: -1, z: 0}
    second:
      serializedVersion: 2
      m_TileIndex: 37
      m_TileSpriteIndex: 37
      m_TileMatrixIndex: 0
      m_TileColorIndex: 0
      m_TileObjectToInstantiateIndex: 65535
      m_AllTileFlags: 1073741825
  - first: {x: 7, y: -1, z: 0}
    second:
      serializedVersion: 2
      m_TileIndex: 38
      m_TileSpriteIndex: 38
      m_TileMatrixIndex: 0
      m_TileColorIndex: 0
      m_TileObjectToInstantiateIndex: 65535
      m_AllTileFlags: 1073741825
  - first: {x: 8, y: -1, z: 0}
    second:
      serializedVersion: 2
      m_TileIndex: 39
      m_TileSpriteIndex: 39
      m_TileMatrixIndex: 0
      m_TileColorIndex: 0
      m_TileObjectToInstantiateIndex: 65535
      m_AllTileFlags: 1073741825
  - first: {x: -1, y: 0, z: 0}
    second:
      serializedVersion: 2
      m_TileIndex: 20
      m_TileSpriteIndex: 20
      m_TileMatrixIndex: 0
      m_TileColorIndex: 0
      m_TileObjectToInstantiateIndex: 65535
      m_AllTileFlags: 1073741825
  - first: {x: 0, y: 0, z: 0}
    second:
      serializedVersion: 2
      m_TileIndex: 21
      m_TileSpriteIndex: 21
      m_TileMatrixIndex: 0
      m_TileColorIndex: 0
      m_TileObjectToInstantiateIndex: 65535
      m_AllTileFlags: 1073741825
  - first: {x: 1, y: 0, z: 0}
    second:
      serializedVersion: 2
      m_TileIndex: 22
      m_TileSpriteIndex: 22
      m_TileMatrixIndex: 0
      m_TileColorIndex: 0
      m_TileObjectToInstantiateIndex: 65535
      m_AllTileFlags: 1073741825
  - first: {x: 2, y: 0, z: 0}
    second:
      serializedVersion: 2
      m_TileIndex: 23
      m_TileSpriteIndex: 23
      m_TileMatrixIndex: 0
      m_TileColorIndex: 0
      m_TileObjectToInstantiateIndex: 65535
      m_AllTileFlags: 1073741825
  - first: {x: 3, y: 0, z: 0}
    second:
      serializedVersion: 2
      m_TileIndex: 24
      m_TileSpriteIndex: 24
      m_TileMatrixIndex: 0
      m_TileColorIndex: 0
      m_TileObjectToInstantiateIndex: 65535
      m_AllTileFlags: 1073741825
  - first: {x: 6, y: 0, z: 0}
    second:
      serializedVersion: 2
      m_TileIndex: 25
      m_TileSpriteIndex: 25
      m_TileMatrixIndex: 0
      m_TileColorIndex: 0
      m_TileObjectToInstantiateIndex: 65535
      m_AllTileFlags: 1073741825
  - first: {x: 7, y: 0, z: 0}
    second:
      serializedVersion: 2
      m_TileIndex: 26
      m_TileSpriteIndex: 26
      m_TileMatrixIndex: 0
      m_TileColorIndex: 0
      m_TileObjectToInstantiateIndex: 65535
      m_AllTileFlags: 1073741825
  - first: {x: 8, y: 0, z: 0}
    second:
      serializedVersion: 2
      m_TileIndex: 27
      m_TileSpriteIndex: 27
      m_TileMatrixIndex: 0
      m_TileColorIndex: 0
      m_TileObjectToInstantiateIndex: 65535
      m_AllTileFlags: 1073741825
  - first: {x: 9, y: 0, z: 0}
    second:
      serializedVersion: 2
      m_TileIndex: 28
      m_TileSpriteIndex: 28
      m_TileMatrixIndex: 0
      m_TileColorIndex: 0
      m_TileObjectToInstantiateIndex: 65535
      m_AllTileFlags: 1073741825
  - first: {x: -1, y: 1, z: 0}
    second:
      serializedVersion: 2
      m_TileIndex: 9
      m_TileSpriteIndex: 9
      m_TileMatrixIndex: 0
      m_TileColorIndex: 0
      m_TileObjectToInstantiateIndex: 65535
      m_AllTileFlags: 1073741825
  - first: {x: 0, y: 1, z: 0}
    second:
      serializedVersion: 2
      m_TileIndex: 10
      m_TileSpriteIndex: 10
      m_TileMatrixIndex: 0
      m_TileColorIndex: 0
      m_TileObjectToInstantiateIndex: 65535
      m_AllTileFlags: 1073741825
  - first: {x: 1, y: 1, z: 0}
    second:
      serializedVersion: 2
      m_TileIndex: 11
      m_TileSpriteIndex: 11
      m_TileMatrixIndex: 0
      m_TileColorIndex: 0
      m_TileObjectToInstantiateIndex: 65535
      m_AllTileFlags: 1073741825
  - first: {x: 2, y: 1, z: 0}
    second:
      serializedVersion: 2
      m_TileIndex: 12
      m_TileSpriteIndex: 12
      m_TileMatrixIndex: 0
      m_TileColorIndex: 0
      m_TileObjectToInstantiateIndex: 65535
      m_AllTileFlags: 1073741825
  - first: {x: 3, y: 1, z: 0}
    second:
      serializedVersion: 2
      m_TileIndex: 13
      m_TileSpriteIndex: 13
      m_TileMatrixIndex: 0
      m_TileColorIndex: 0
      m_TileObjectToInstantiateIndex: 65535
      m_AllTileFlags: 1073741825
  - first: {x: 4, y: 1, z: 0}
    second:
      serializedVersion: 2
      m_TileIndex: 14
      m_TileSpriteIndex: 14
      m_TileMatrixIndex: 0
      m_TileColorIndex: 0
      m_TileObjectToInstantiateIndex: 65535
      m_AllTileFlags: 1073741825
  - first: {x: 5, y: 1, z: 0}
    second:
      serializedVersion: 2
      m_TileIndex: 15
      m_TileSpriteIndex: 15
      m_TileMatrixIndex: 0
      m_TileColorIndex: 0
      m_TileObjectToInstantiateIndex: 65535
      m_AllTileFlags: 1073741825
  - first: {x: 6, y: 1, z: 0}
    second:
      serializedVersion: 2
      m_TileIndex: 16
      m_TileSpriteIndex: 16
      m_TileMatrixIndex: 0
      m_TileColorIndex: 0
      m_TileObjectToInstantiateIndex: 65535
      m_AllTileFlags: 1073741825
  - first: {x: 7, y: 1, z: 0}
    second:
      serializedVersion: 2
      m_TileIndex: 17
      m_TileSpriteIndex: 17
      m_TileMatrixIndex: 0
      m_TileColorIndex: 0
      m_TileObjectToInstantiateIndex: 65535
      m_AllTileFlags: 1073741825
  - first: {x: 8, y: 1, z: 0}
    second:
      serializedVersion: 2
      m_TileIndex: 18
      m_TileSpriteIndex: 18
      m_TileMatrixIndex: 0
      m_TileColorIndex: 0
      m_TileObjectToInstantiateIndex: 65535
      m_AllTileFlags: 1073741825
  - first: {x: 9, y: 1, z: 0}
    second:
      serializedVersion: 2
      m_TileIndex: 19
      m_TileSpriteIndex: 19
      m_TileMatrixIndex: 0
      m_TileColorIndex: 0
      m_TileObjectToInstantiateIndex: 65535
      m_AllTileFlags: 1073741825
  - first: {x: -1, y: 2, z: 0}
    second:
      serializedVersion: 2
      m_TileIndex: 0
      m_TileSpriteIndex: 0
      m_TileMatrixIndex: 0
      m_TileColorIndex: 0
      m_TileObjectToInstantiateIndex: 65535
      m_AllTileFlags: 1073741825
  - first: {x: 0, y: 2, z: 0}
    second:
      serializedVersion: 2
      m_TileIndex: 1
      m_TileSpriteIndex: 1
      m_TileMatrixIndex: 0
      m_TileColorIndex: 0
      m_TileObjectToInstantiateIndex: 65535
      m_AllTileFlags: 1073741825
  - first: {x: 1, y: 2, z: 0}
    second:
      serializedVersion: 2
      m_TileIndex: 2
      m_TileSpriteIndex: 2
      m_TileMatrixIndex: 0
      m_TileColorIndex: 0
      m_TileObjectToInstantiateIndex: 65535
      m_AllTileFlags: 1073741825
  - first: {x: 2, y: 2, z: 0}
    second:
      serializedVersion: 2
      m_TileIndex: 3
      m_TileSpriteIndex: 3
      m_TileMatrixIndex: 0
      m_TileColorIndex: 0
      m_TileObjectToInstantiateIndex: 65535
      m_AllTileFlags: 1073741825
  - first: {x: 3, y: 2, z: 0}
    second:
      serializedVersion: 2
      m_TileIndex: 4
      m_TileSpriteIndex: 4
      m_TileMatrixIndex: 0
      m_TileColorIndex: 0
      m_TileObjectToInstantiateIndex: 65535
      m_AllTileFlags: 1073741825
  - first: {x: 4, y: 2, z: 0}
    second:
      serializedVersion: 2
      m_TileIndex: 5
      m_TileSpriteIndex: 5
      m_TileMatrixIndex: 0
      m_TileColorIndex: 0
      m_TileObjectToInstantiateIndex: 65535
      m_AllTileFlags: 1073741825
  - first: {x: 5, y: 2, z: 0}
    second:
      serializedVersion: 2
      m_TileIndex: 6
      m_TileSpriteIndex: 6
      m_TileMatrixIndex: 0
      m_TileColorIndex: 0
      m_TileObjectToInstantiateIndex: 65535
      m_AllTileFlags: 1073741825
  - first: {x: 6, y: 2, z: 0}
    second:
      serializedVersion: 2
      m_TileIndex: 7
      m_TileSpriteIndex: 7
      m_TileMatrixIndex: 0
      m_TileColorIndex: 0
      m_TileObjectToInstantiateIndex: 65535
      m_AllTileFlags: 1073741825
  - first: {x: 7, y: 2, z: 0}
    second:
      serializedVersion: 2
      m_TileIndex: 8
      m_TileSpriteIndex: 8
      m_TileMatrixIndex: 0
      m_TileColorIndex: 0
      m_TileObjectToInstantiateIndex: 65535
      m_AllTileFlags: 1073741825
  m_AnimatedTiles: {}
  m_TileAssetArray:
  - m_RefCount: 1
    m_Data: {fileID: 11400000, guid: eedd50544d0bacf43af142e3d5aa9780, type: 2}
  - m_RefCount: 1
    m_Data: {fileID: 11400000, guid: a182c92d4e62ecc46909aeab6ca49ad2, type: 2}
  - m_RefCount: 1
    m_Data: {fileID: 11400000, guid: d62e6cedaa37eb448ba31a8bc2664590, type: 2}
  - m_RefCount: 1
    m_Data: {fileID: 11400000, guid: bb7452f12382932479c061fede2871c3, type: 2}
  - m_RefCount: 1
    m_Data: {fileID: 11400000, guid: 95a52f6f601525f4e83ccccc23b0ec79, type: 2}
  - m_RefCount: 1
    m_Data: {fileID: 11400000, guid: 7f5a6d8fb09d6464eb700b3b6fe68462, type: 2}
  - m_RefCount: 1
    m_Data: {fileID: 11400000, guid: 342d8dd3e336cad48b43afd554d0e952, type: 2}
  - m_RefCount: 1
    m_Data: {fileID: 11400000, guid: d5183dbf2b7392c44a9c279fb28d6345, type: 2}
  - m_RefCount: 1
    m_Data: {fileID: 11400000, guid: 07b495d2e5e1e9d4899c1552b8add4dd, type: 2}
  - m_RefCount: 1
    m_Data: {fileID: 11400000, guid: 21d6aa8adb53dfa4ba5ad7c1c91aa145, type: 2}
  - m_RefCount: 1
    m_Data: {fileID: 11400000, guid: 19b6108c6fa9e9e4eab6c658b06b1057, type: 2}
  - m_RefCount: 1
    m_Data: {fileID: 11400000, guid: 21d2e696673a1874c80baf55e815483e, type: 2}
  - m_RefCount: 1
    m_Data: {fileID: 11400000, guid: 135d2f44cdec96843998527d92a59b5b, type: 2}
  - m_RefCount: 1
    m_Data: {fileID: 11400000, guid: 2103bd48555a4db49ac35dd0effe7260, type: 2}
  - m_RefCount: 1
    m_Data: {fileID: 11400000, guid: 38ddfb46626adca49a924bf8f3c03ed8, type: 2}
  - m_RefCount: 1
    m_Data: {fileID: 11400000, guid: 6a809c21cbc9e0e4ea51af25c1a5d0ee, type: 2}
  - m_RefCount: 1
    m_Data: {fileID: 11400000, guid: a4e94e82b8c67204d975020e55eb3f5f, type: 2}
  - m_RefCount: 1
    m_Data: {fileID: 11400000, guid: 32ee1d0d731a4154ba9750ed092ac377, type: 2}
  - m_RefCount: 1
    m_Data: {fileID: 11400000, guid: 6686500a7aeca1d4e9f725c5daf33415, type: 2}
  - m_RefCount: 1
    m_Data: {fileID: 11400000, guid: be4024b351339aa4f8465524c9a0d1ac, type: 2}
  - m_RefCount: 1
    m_Data: {fileID: 11400000, guid: 4bc8e793f5715fb4eaba901adeaee714, type: 2}
  - m_RefCount: 1
    m_Data: {fileID: 11400000, guid: 50e0868bac822a74ca9c3f0fb0ed5907, type: 2}
  - m_RefCount: 1
    m_Data: {fileID: 11400000, guid: 1051cacac52a56e4793f73434e94e915, type: 2}
  - m_RefCount: 1
    m_Data: {fileID: 11400000, guid: 4228827726190314db6a40f4f31e185f, type: 2}
  - m_RefCount: 1
    m_Data: {fileID: 11400000, guid: 360cdec052a9b554686a358190eacefe, type: 2}
  - m_RefCount: 1
    m_Data: {fileID: 11400000, guid: 483c7db3f919c1b4886be0f547728536, type: 2}
  - m_RefCount: 1
    m_Data: {fileID: 11400000, guid: 01deaf615862105458828b699afa3c41, type: 2}
  - m_RefCount: 1
    m_Data: {fileID: 11400000, guid: 05c98e382f5100b4b8411f5d4a175190, type: 2}
  - m_RefCount: 1
    m_Data: {fileID: 11400000, guid: 8ddb861a76becfa4db3d52a0515c3ced, type: 2}
  - m_RefCount: 1
    m_Data: {fileID: 11400000, guid: c838beb097189014183a2fbe844e5fae, type: 2}
  - m_RefCount: 1
    m_Data: {fileID: 11400000, guid: 11f468ba2a082e243b9491e609dbb43a, type: 2}
  - m_RefCount: 1
    m_Data: {fileID: 11400000, guid: 35e88c2588954924db8031de04a7e707, type: 2}
  - m_RefCount: 1
    m_Data: {fileID: 11400000, guid: 104eb98691870634abe38732e4ae6450, type: 2}
  - m_RefCount: 1
    m_Data: {fileID: 11400000, guid: 01a47fe7250b13b4ca69c3b14a9d7caf, type: 2}
  - m_RefCount: 1
    m_Data: {fileID: 11400000, guid: e0b8b7e9ba617c841abb9c1909e13542, type: 2}
  - m_RefCount: 1
    m_Data: {fileID: 11400000, guid: 23cd919daa0438f4da27baf4f321bb32, type: 2}
  - m_RefCount: 1
    m_Data: {fileID: 11400000, guid: 03e1de9377ccc0241a36b83e2c52c507, type: 2}
  - m_RefCount: 1
    m_Data: {fileID: 11400000, guid: 7b9934f211f8e984f9bb76215f831bd2, type: 2}
  - m_RefCount: 1
    m_Data: {fileID: 11400000, guid: 61c0034c0a4c78841a8138c383e57c5b, type: 2}
  - m_RefCount: 1
    m_Data: {fileID: 11400000, guid: 6e6deaf819f8e98459e19a04509fcb2c, type: 2}
  - m_RefCount: 1
    m_Data: {fileID: 11400000, guid: 164d0d303e5b35340a036915f12479a6, type: 2}
  - m_RefCount: 1
    m_Data: {fileID: 11400000, guid: b4cb7ed4b8f5a4044a6f0fb444734737, type: 2}
  - m_RefCount: 1
    m_Data: {fileID: 11400000, guid: 1c1a62952860df7419aa56fd2056c457, type: 2}
  - m_RefCount: 1
    m_Data: {fileID: 11400000, guid: ee3088de44b8eb446b1180bada9a2ffa, type: 2}
  - m_RefCount: 1
    m_Data: {fileID: 11400000, guid: 5d1b854a747e5a44986d41872f81fb11, type: 2}
  - m_RefCount: 1
    m_Data: {fileID: 11400000, guid: 205ae211659399540b2d2cb760405f6f, type: 2}
  - m_RefCount: 1
    m_Data: {fileID: 11400000, guid: 22ed39cc8c4dccf4188662022bd7518c, type: 2}
  - m_RefCount: 1
    m_Data: {fileID: 11400000, guid: a9ab66cb2eac25d439b1ce7e298447e0, type: 2}
  - m_RefCount: 1
    m_Data: {fileID: 11400000, guid: 0732c63a865754d41a60873301934abc, type: 2}
  - m_RefCount: 1
    m_Data: {fileID: 11400000, guid: 34f7e5d2753dee04d9c2f4053c93786a, type: 2}
  - m_RefCount: 1
    m_Data: {fileID: 11400000, guid: 8ab798d803e056b48b0042eb36d48111, type: 2}
  - m_RefCount: 1
    m_Data: {fileID: 11400000, guid: 12b64ffe28340d34cb2231944b2b370d, type: 2}
  - m_RefCount: 1
    m_Data: {fileID: 11400000, guid: bb08851e13b3acc4c9eb057b86c49e3f, type: 2}
  - m_RefCount: 1
    m_Data: {fileID: 11400000, guid: bc05346fc21e3c644ab4dd402b19952d, type: 2}
  - m_RefCount: 1
    m_Data: {fileID: 11400000, guid: 1ae19462701efbf46bebea6af3416cd6, type: 2}
  - m_RefCount: 1
    m_Data: {fileID: 11400000, guid: bd74aae6299729d4ab6a64b2c55a7ad2, type: 2}
  - m_RefCount: 1
    m_Data: {fileID: 11400000, guid: 36037a0907ff24742892edce9d4d556a, type: 2}
  - m_RefCount: 1
    m_Data: {fileID: 11400000, guid: b8cb12b5e33b8f341abbcf6ea49b86b2, type: 2}
  - m_RefCount: 1
    m_Data: {fileID: 11400000, guid: 8f1b9ff676d43a4409a7bb778ef65b64, type: 2}
  - m_RefCount: 1
    m_Data: {fileID: 11400000, guid: 87d8c02824f725e41819b4107f2f03ea, type: 2}
  - m_RefCount: 1
    m_Data: {fileID: 11400000, guid: 41cac5f855e017542a961f577643c98e, type: 2}
  m_TileSpriteArray:
  - m_RefCount: 1
    m_Data: {fileID: 21300000, guid: 9fb148bca51749e4291c4d32fa0102e0, type: 3}
  - m_RefCount: 1
    m_Data: {fileID: 21300002, guid: 9fb148bca51749e4291c4d32fa0102e0, type: 3}
  - m_RefCount: 1
    m_Data: {fileID: 21300004, guid: 9fb148bca51749e4291c4d32fa0102e0, type: 3}
  - m_RefCount: 1
    m_Data: {fileID: 21300006, guid: 9fb148bca51749e4291c4d32fa0102e0, type: 3}
  - m_RefCount: 1
    m_Data: {fileID: 21300008, guid: 9fb148bca51749e4291c4d32fa0102e0, type: 3}
  - m_RefCount: 1
    m_Data: {fileID: 21300010, guid: 9fb148bca51749e4291c4d32fa0102e0, type: 3}
  - m_RefCount: 1
    m_Data: {fileID: 21300012, guid: 9fb148bca51749e4291c4d32fa0102e0, type: 3}
  - m_RefCount: 1
    m_Data: {fileID: 21300014, guid: 9fb148bca51749e4291c4d32fa0102e0, type: 3}
  - m_RefCount: 1
    m_Data: {fileID: 21300016, guid: 9fb148bca51749e4291c4d32fa0102e0, type: 3}
  - m_RefCount: 1
    m_Data: {fileID: 21300018, guid: 9fb148bca51749e4291c4d32fa0102e0, type: 3}
  - m_RefCount: 1
    m_Data: {fileID: 21300020, guid: 9fb148bca51749e4291c4d32fa0102e0, type: 3}
  - m_RefCount: 1
    m_Data: {fileID: 21300022, guid: 9fb148bca51749e4291c4d32fa0102e0, type: 3}
  - m_RefCount: 1
    m_Data: {fileID: 21300024, guid: 9fb148bca51749e4291c4d32fa0102e0, type: 3}
  - m_RefCount: 1
    m_Data: {fileID: 21300026, guid: 9fb148bca51749e4291c4d32fa0102e0, type: 3}
  - m_RefCount: 1
    m_Data: {fileID: 21300028, guid: 9fb148bca51749e4291c4d32fa0102e0, type: 3}
  - m_RefCount: 1
    m_Data: {fileID: 21300030, guid: 9fb148bca51749e4291c4d32fa0102e0, type: 3}
  - m_RefCount: 1
    m_Data: {fileID: 21300032, guid: 9fb148bca51749e4291c4d32fa0102e0, type: 3}
  - m_RefCount: 1
    m_Data: {fileID: 21300034, guid: 9fb148bca51749e4291c4d32fa0102e0, type: 3}
  - m_RefCount: 1
    m_Data: {fileID: 21300036, guid: 9fb148bca51749e4291c4d32fa0102e0, type: 3}
  - m_RefCount: 1
    m_Data: {fileID: 21300038, guid: 9fb148bca51749e4291c4d32fa0102e0, type: 3}
  - m_RefCount: 1
    m_Data: {fileID: 21300040, guid: 9fb148bca51749e4291c4d32fa0102e0, type: 3}
  - m_RefCount: 1
    m_Data: {fileID: 21300042, guid: 9fb148bca51749e4291c4d32fa0102e0, type: 3}
  - m_RefCount: 1
    m_Data: {fileID: 21300044, guid: 9fb148bca51749e4291c4d32fa0102e0, type: 3}
  - m_RefCount: 1
    m_Data: {fileID: 21300046, guid: 9fb148bca51749e4291c4d32fa0102e0, type: 3}
  - m_RefCount: 1
    m_Data: {fileID: 21300048, guid: 9fb148bca51749e4291c4d32fa0102e0, type: 3}
  - m_RefCount: 1
    m_Data: {fileID: 21300050, guid: 9fb148bca51749e4291c4d32fa0102e0, type: 3}
  - m_RefCount: 1
    m_Data: {fileID: 21300052, guid: 9fb148bca51749e4291c4d32fa0102e0, type: 3}
  - m_RefCount: 1
    m_Data: {fileID: 21300054, guid: 9fb148bca51749e4291c4d32fa0102e0, type: 3}
  - m_RefCount: 1
    m_Data: {fileID: 21300056, guid: 9fb148bca51749e4291c4d32fa0102e0, type: 3}
  - m_RefCount: 1
    m_Data: {fileID: 21300058, guid: 9fb148bca51749e4291c4d32fa0102e0, type: 3}
  - m_RefCount: 1
    m_Data: {fileID: 21300060, guid: 9fb148bca51749e4291c4d32fa0102e0, type: 3}
  - m_RefCount: 1
    m_Data: {fileID: 21300062, guid: 9fb148bca51749e4291c4d32fa0102e0, type: 3}
  - m_RefCount: 1
    m_Data: {fileID: 21300064, guid: 9fb148bca51749e4291c4d32fa0102e0, type: 3}
  - m_RefCount: 1
    m_Data: {fileID: 21300066, guid: 9fb148bca51749e4291c4d32fa0102e0, type: 3}
  - m_RefCount: 1
    m_Data: {fileID: 21300068, guid: 9fb148bca51749e4291c4d32fa0102e0, type: 3}
  - m_RefCount: 1
    m_Data: {fileID: 21300070, guid: 9fb148bca51749e4291c4d32fa0102e0, type: 3}
  - m_RefCount: 1
    m_Data: {fileID: 21300072, guid: 9fb148bca51749e4291c4d32fa0102e0, type: 3}
  - m_RefCount: 1
    m_Data: {fileID: 21300074, guid: 9fb148bca51749e4291c4d32fa0102e0, type: 3}
  - m_RefCount: 1
    m_Data: {fileID: 21300076, guid: 9fb148bca51749e4291c4d32fa0102e0, type: 3}
  - m_RefCount: 1
    m_Data: {fileID: 21300078, guid: 9fb148bca51749e4291c4d32fa0102e0, type: 3}
  - m_RefCount: 1
    m_Data: {fileID: 21300080, guid: 9fb148bca51749e4291c4d32fa0102e0, type: 3}
  - m_RefCount: 1
    m_Data: {fileID: 21300082, guid: 9fb148bca51749e4291c4d32fa0102e0, type: 3}
  - m_RefCount: 1
    m_Data: {fileID: 21300084, guid: 9fb148bca51749e4291c4d32fa0102e0, type: 3}
  - m_RefCount: 1
    m_Data: {fileID: 21300086, guid: 9fb148bca51749e4291c4d32fa0102e0, type: 3}
  - m_RefCount: 1
    m_Data: {fileID: 21300088, guid: 9fb148bca51749e4291c4d32fa0102e0, type: 3}
  - m_RefCount: 1
    m_Data: {fileID: 21300090, guid: 9fb148bca51749e4291c4d32fa0102e0, type: 3}
  - m_RefCount: 1
    m_Data: {fileID: 21300092, guid: 9fb148bca51749e4291c4d32fa0102e0, type: 3}
  - m_RefCount: 1
    m_Data: {fileID: 21300094, guid: 9fb148bca51749e4291c4d32fa0102e0, type: 3}
  - m_RefCount: 1
    m_Data: {fileID: 21300096, guid: 9fb148bca51749e4291c4d32fa0102e0, type: 3}
  - m_RefCount: 1
    m_Data: {fileID: 21300098, guid: 9fb148bca51749e4291c4d32fa0102e0, type: 3}
  - m_RefCount: 1
    m_Data: {fileID: 21300100, guid: 9fb148bca51749e4291c4d32fa0102e0, type: 3}
  - m_RefCount: 1
    m_Data: {fileID: 21300102, guid: 9fb148bca51749e4291c4d32fa0102e0, type: 3}
  - m_RefCount: 1
    m_Data: {fileID: 21300104, guid: 9fb148bca51749e4291c4d32fa0102e0, type: 3}
  - m_RefCount: 1
    m_Data: {fileID: 21300106, guid: 9fb148bca51749e4291c4d32fa0102e0, type: 3}
  - m_RefCount: 1
    m_Data: {fileID: 21300108, guid: 9fb148bca51749e4291c4d32fa0102e0, type: 3}
  - m_RefCount: 1
    m_Data: {fileID: 21300110, guid: 9fb148bca51749e4291c4d32fa0102e0, type: 3}
  - m_RefCount: 1
    m_Data: {fileID: 21300112, guid: 9fb148bca51749e4291c4d32fa0102e0, type: 3}
  - m_RefCount: 1
    m_Data: {fileID: 21300114, guid: 9fb148bca51749e4291c4d32fa0102e0, type: 3}
  - m_RefCount: 1
    m_Data: {fileID: 21300116, guid: 9fb148bca51749e4291c4d32fa0102e0, type: 3}
  - m_RefCount: 1
    m_Data: {fileID: 21300118, guid: 9fb148bca51749e4291c4d32fa0102e0, type: 3}
  - m_RefCount: 1
    m_Data: {fileID: 21300120, guid: 9fb148bca51749e4291c4d32fa0102e0, type: 3}
  m_TileMatrixArray:
  - m_RefCount: 61
    m_Data:
      e00: 1
      e01: 0
      e02: 0
      e03: 0
      e10: 0
      e11: 1
      e12: 0
      e13: 0
      e20: 0
      e21: 0
      e22: 1
      e23: 0
      e30: 0
      e31: 0
      e32: 0
      e33: 1
  m_TileColorArray:
  - m_RefCount: 61
    m_Data: {r: 1, g: 1, b: 1, a: 1}
  m_TileObjectToInstantiateArray: []
  m_AnimationFrameRate: 1
  m_Color: {r: 1, g: 1, b: 1, a: 1}
  m_Origin: {x: -2, y: -3, z: 0}
  m_Size: {x: 12, y: 6, z: 1}
  m_TileAnchor: {x: 0.5, y: 0.5, z: 0}
  m_TileOrientation: 0
  m_TileOrientationMatrix:
    e00: 1
    e01: 0
    e02: 0
    e03: 0
    e10: 0
    e11: 1
    e12: 0
    e13: 0
    e20: 0
    e21: 0
    e22: 1
    e23: 0
    e30: 0
    e31: 0
    e32: 0
    e33: 1
--- !u!483693784 &8632658092918222115
TilemapRenderer:
  m_ObjectHideFlags: 0
  m_CorrespondingSourceObject: {fileID: 0}
  m_PrefabInstance: {fileID: 0}
  m_PrefabAsset: {fileID: 0}
  m_GameObject: {fileID: 6827468863890076869}
  m_Enabled: 0
  m_CastShadows: 0
  m_ReceiveShadows: 0
  m_DynamicOccludee: 0
  m_MotionVectors: 1
  m_LightProbeUsage: 0
  m_ReflectionProbeUsage: 0
  m_RayTracingMode: 0
  m_RenderingLayerMask: 1
  m_RendererPriority: 0
  m_Materials:
  - {fileID: 10754, guid: 0000000000000000f000000000000000, type: 0}
  m_StaticBatchInfo:
    firstSubMesh: 0
    subMeshCount: 0
  m_StaticBatchRoot: {fileID: 0}
  m_ProbeAnchor: {fileID: 0}
  m_LightProbeVolumeOverride: {fileID: 0}
  m_ScaleInLightmap: 1
  m_ReceiveGI: 1
  m_PreserveUVs: 0
  m_IgnoreNormalsForChartDetection: 0
  m_ImportantGI: 0
  m_StitchLightmapSeams: 1
  m_SelectedEditorRenderState: 0
  m_MinimumChartSize: 4
  m_AutoUVMaxDistance: 0.5
  m_AutoUVMaxAngle: 89
  m_LightmapParameters: {fileID: 0}
  m_SortingLayerID: 0
  m_SortingLayer: 0
  m_SortingOrder: 0
  m_ChunkSize: {x: 32, y: 32, z: 32}
  m_ChunkCullingBounds: {x: 0, y: 0, z: 0}
  m_MaxChunkCount: 16
  m_MaxFrameAge: 16
  m_SortOrder: 0
  m_Mode: 0
  m_DetectChunkCullingBounds: 0
  m_MaskInteraction: 0
--- !u!114 &-1821103555285415486
MonoBehaviour:
  m_ObjectHideFlags: 0
  m_CorrespondingSourceObject: {fileID: 0}
  m_PrefabInstance: {fileID: 0}
  m_PrefabAsset: {fileID: 0}
  m_GameObject: {fileID: 0}
  m_Enabled: 1
  m_EditorHideFlags: 0
  m_Script: {fileID: 12395, guid: 0000000000000000e000000000000000, type: 0}
  m_Name: Palette Settings
  m_EditorClassIdentifier: 
  cellSizing: 0
