%YAML 1.1
%TAG !u! tag:unity3d.com,2011:
--- !u!1 &7756991275572523112
GameObject:
  m_ObjectHideFlags: 0
  m_CorrespondingSourceObject: {fileID: 0}
  m_PrefabInstance: {fileID: 0}
  m_PrefabAsset: {fileID: 0}
  serializedVersion: 6
  m_Component:
  - component: {fileID: 5652709626011931869}
  - component: {fileID: 5031634413644976821}
  m_Layer: 31
  m_Name: SecondForGround
  m_TagString: Untagged
  m_Icon: {fileID: 0}
  m_NavMeshLayer: 0
  m_StaticEditorFlags: 0
  m_IsActive: 1
--- !u!4 &5652709626011931869
Transform:
  m_ObjectHideFlags: 0
  m_CorrespondingSourceObject: {fileID: 0}
  m_PrefabInstance: {fileID: 0}
  m_PrefabAsset: {fileID: 0}
  m_GameObject: {fileID: 7756991275572523112}
  m_LocalRotation: {x: 0, y: 0, z: 0, w: 1}
  m_LocalPosition: {x: 0, y: 0, z: 0}
  m_LocalScale: {x: 1, y: 1, z: 1}
  m_Children:
  - {fileID: 5279462533823806868}
  m_Father: {fileID: 0}
  m_RootOrder: 0
  m_LocalEulerAnglesHint: {x: 0, y: 0, z: 0}
--- !u!156049354 &5031634413644976821
Grid:
  m_ObjectHideFlags: 0
  m_CorrespondingSourceObject: {fileID: 0}
  m_PrefabInstance: {fileID: 0}
  m_PrefabAsset: {fileID: 0}
  m_GameObject: {fileID: 7756991275572523112}
  m_Enabled: 1
  m_CellSize: {x: 1, y: 1, z: 0}
  m_CellGap: {x: 0, y: 0, z: 0}
  m_CellLayout: 0
  m_CellSwizzle: 0
--- !u!1 &8463560067313782981
GameObject:
  m_ObjectHideFlags: 0
  m_CorrespondingSourceObject: {fileID: 0}
  m_PrefabInstance: {fileID: 0}
  m_PrefabAsset: {fileID: 0}
  serializedVersion: 6
  m_Component:
  - component: {fileID: 5279462533823806868}
  - component: {fileID: 3814626831552009671}
  - component: {fileID: 1667234207305222720}
  m_Layer: 31
  m_Name: Layer1
  m_TagString: Untagged
  m_Icon: {fileID: 0}
  m_NavMeshLayer: 0
  m_StaticEditorFlags: 0
  m_IsActive: 1
--- !u!4 &5279462533823806868
Transform:
  m_ObjectHideFlags: 0
  m_CorrespondingSourceObject: {fileID: 0}
  m_PrefabInstance: {fileID: 0}
  m_PrefabAsset: {fileID: 0}
  m_GameObject: {fileID: 8463560067313782981}
  m_LocalRotation: {x: -0, y: -0, z: -0, w: 1}
  m_LocalPosition: {x: 0, y: 0, z: 0}
  m_LocalScale: {x: 1, y: 1, z: 1}
  m_Children: []
  m_Father: {fileID: 5652709626011931869}
  m_RootOrder: 0
  m_LocalEulerAnglesHint: {x: 0, y: 0, z: 0}
--- !u!1839735485 &3814626831552009671
Tilemap:
  m_ObjectHideFlags: 0
  m_CorrespondingSourceObject: {fileID: 0}
  m_PrefabInstance: {fileID: 0}
  m_PrefabAsset: {fileID: 0}
  m_GameObject: {fileID: 8463560067313782981}
  m_Enabled: 1
  m_Tiles:
  - first: {x: -1, y: -2, z: 0}
    second:
      serializedVersion: 2
      m_TileIndex: 56
      m_TileSpriteIndex: 56
      m_TileMatrixIndex: 0
      m_TileColorIndex: 0
      m_TileObjectToInstantiateIndex: 65535
      m_AllTileFlags: 1073741825
  - first: {x: 0, y: -2, z: 0}
    second:
      serializedVersion: 2
      m_TileIndex: 51
      m_TileSpriteIndex: 51
      m_TileMatrixIndex: 0
      m_TileColorIndex: 0
      m_TileObjectToInstantiateIndex: 65535
      m_AllTileFlags: 1073741825
  - first: {x: 1, y: -2, z: 0}
    second:
      serializedVersion: 2
      m_TileIndex: 57
      m_TileSpriteIndex: 57
      m_TileMatrixIndex: 0
      m_TileColorIndex: 0
      m_TileObjectToInstantiateIndex: 65535
      m_AllTileFlags: 1073741825
  - first: {x: 2, y: -2, z: 0}
    second:
      serializedVersion: 2
      m_TileIndex: 53
      m_TileSpriteIndex: 53
      m_TileMatrixIndex: 0
      m_TileColorIndex: 0
      m_TileObjectToInstantiateIndex: 65535
      m_AllTileFlags: 1073741825
  - first: {x: 3, y: -2, z: 0}
    second:
      serializedVersion: 2
      m_TileIndex: 58
      m_TileSpriteIndex: 58
      m_TileMatrixIndex: 0
      m_TileColorIndex: 0
      m_TileObjectToInstantiateIndex: 65535
      m_AllTileFlags: 1073741825
  - first: {x: 4, y: -2, z: 0}
    second:
      serializedVersion: 2
      m_TileIndex: 43
      m_TileSpriteIndex: 43
      m_TileMatrixIndex: 0
      m_TileColorIndex: 0
      m_TileObjectToInstantiateIndex: 65535
      m_AllTileFlags: 1073741825
  - first: {x: 5, y: -2, z: 0}
    second:
      serializedVersion: 2
      m_TileIndex: 44
      m_TileSpriteIndex: 44
      m_TileMatrixIndex: 0
      m_TileColorIndex: 0
      m_TileObjectToInstantiateIndex: 65535
      m_AllTileFlags: 1073741825
  - first: {x: 6, y: -2, z: 0}
    second:
      serializedVersion: 2
      m_TileIndex: 45
      m_TileSpriteIndex: 45
      m_TileMatrixIndex: 0
      m_TileColorIndex: 0
      m_TileObjectToInstantiateIndex: 65535
      m_AllTileFlags: 1073741825
  - first: {x: 7, y: -2, z: 0}
    second:
      serializedVersion: 2
      m_TileIndex: 46
      m_TileSpriteIndex: 46
      m_TileMatrixIndex: 0
      m_TileColorIndex: 0
      m_TileObjectToInstantiateIndex: 65535
      m_AllTileFlags: 1073741825
  - first: {x: -2, y: -1, z: 0}
    second:
      serializedVersion: 2
      m_TileIndex: 34
      m_TileSpriteIndex: 34
      m_TileMatrixIndex: 0
      m_TileColorIndex: 0
      m_TileObjectToInstantiateIndex: 65535
      m_AllTileFlags: 1073741825
  - first: {x: -1, y: -1, z: 0}
    second:
      serializedVersion: 2
      m_TileIndex: 35
      m_TileSpriteIndex: 35
      m_TileMatrixIndex: 0
      m_TileColorIndex: 0
      m_TileObjectToInstantiateIndex: 65535
      m_AllTileFlags: 1073741825
  - first: {x: 0, y: -1, z: 0}
    second:
      serializedVersion: 2
      m_TileIndex: 36
      m_TileSpriteIndex: 36
      m_TileMatrixIndex: 0
      m_TileColorIndex: 0
      m_TileObjectToInstantiateIndex: 65535
      m_AllTileFlags: 1073741825
  - first: {x: 1, y: -1, z: 0}
    second:
      serializedVersion: 2
      m_TileIndex: 37
      m_TileSpriteIndex: 37
      m_TileMatrixIndex: 0
      m_TileColorIndex: 0
      m_TileObjectToInstantiateIndex: 65535
      m_AllTileFlags: 1073741825
  - first: {x: 2, y: -1, z: 0}
    second:
      serializedVersion: 2
      m_TileIndex: 38
      m_TileSpriteIndex: 38
      m_TileMatrixIndex: 0
      m_TileColorIndex: 0
      m_TileObjectToInstantiateIndex: 65535
      m_AllTileFlags: 1073741825
  - first: {x: 3, y: -1, z: 0}
    second:
      serializedVersion: 2
      m_TileIndex: 39
      m_TileSpriteIndex: 39
      m_TileMatrixIndex: 0
      m_TileColorIndex: 0
      m_TileObjectToInstantiateIndex: 65535
      m_AllTileFlags: 1073741825
  - first: {x: 4, y: -1, z: 0}
    second:
      serializedVersion: 2
      m_TileIndex: 40
      m_TileSpriteIndex: 40
      m_TileMatrixIndex: 0
      m_TileColorIndex: 0
      m_TileObjectToInstantiateIndex: 65535
      m_AllTileFlags: 1073741825
  - first: {x: 5, y: -1, z: 0}
    second:
      serializedVersion: 2
      m_TileIndex: 55
      m_TileSpriteIndex: 55
      m_TileMatrixIndex: 0
      m_TileColorIndex: 0
      m_TileObjectToInstantiateIndex: 65535
      m_AllTileFlags: 1073741825
  - first: {x: 6, y: -1, z: 0}
    second:
      serializedVersion: 2
      m_TileIndex: 41
      m_TileSpriteIndex: 41
      m_TileMatrixIndex: 0
      m_TileColorIndex: 0
      m_TileObjectToInstantiateIndex: 65535
      m_AllTileFlags: 1073741825
  - first: {x: 7, y: -1, z: 0}
    second:
      serializedVersion: 2
      m_TileIndex: 42
      m_TileSpriteIndex: 42
      m_TileMatrixIndex: 0
      m_TileColorIndex: 0
      m_TileObjectToInstantiateIndex: 65535
      m_AllTileFlags: 1073741825
  - first: {x: 8, y: -1, z: 0}
    second:
      serializedVersion: 2
      m_TileIndex: 7
      m_TileSpriteIndex: 7
      m_TileMatrixIndex: 0
      m_TileColorIndex: 0
      m_TileObjectToInstantiateIndex: 65535
      m_AllTileFlags: 1073741825
  - first: {x: 9, y: -1, z: 0}
    second:
      serializedVersion: 2
      m_TileIndex: 6
      m_TileSpriteIndex: 6
      m_TileMatrixIndex: 0
      m_TileColorIndex: 0
      m_TileObjectToInstantiateIndex: 65535
      m_AllTileFlags: 1073741825
  - first: {x: -2, y: 0, z: 0}
    second:
      serializedVersion: 2
      m_TileIndex: 47
      m_TileSpriteIndex: 47
      m_TileMatrixIndex: 0
      m_TileColorIndex: 0
      m_TileObjectToInstantiateIndex: 65535
      m_AllTileFlags: 1073741825
  - first: {x: -1, y: 0, z: 0}
    second:
      serializedVersion: 2
      m_TileIndex: 25
      m_TileSpriteIndex: 25
      m_TileMatrixIndex: 0
      m_TileColorIndex: 0
      m_TileObjectToInstantiateIndex: 65535
      m_AllTileFlags: 1073741825
  - first: {x: 0, y: 0, z: 0}
    second:
      serializedVersion: 2
      m_TileIndex: 26
      m_TileSpriteIndex: 26
      m_TileMatrixIndex: 0
      m_TileColorIndex: 0
      m_TileObjectToInstantiateIndex: 65535
      m_AllTileFlags: 1073741825
  - first: {x: 1, y: 0, z: 0}
    second:
      serializedVersion: 2
      m_TileIndex: 27
      m_TileSpriteIndex: 27
      m_TileMatrixIndex: 0
      m_TileColorIndex: 0
      m_TileObjectToInstantiateIndex: 65535
      m_AllTileFlags: 1073741825
  - first: {x: 2, y: 0, z: 0}
    second:
      serializedVersion: 2
      m_TileIndex: 28
      m_TileSpriteIndex: 28
      m_TileMatrixIndex: 0
      m_TileColorIndex: 0
      m_TileObjectToInstantiateIndex: 65535
      m_AllTileFlags: 1073741825
  - first: {x: 3, y: 0, z: 0}
    second:
      serializedVersion: 2
      m_TileIndex: 29
      m_TileSpriteIndex: 29
      m_TileMatrixIndex: 0
      m_TileColorIndex: 0
      m_TileObjectToInstantiateIndex: 65535
      m_AllTileFlags: 1073741825
  - first: {x: 4, y: 0, z: 0}
    second:
      serializedVersion: 2
      m_TileIndex: 30
      m_TileSpriteIndex: 30
      m_TileMatrixIndex: 0
      m_TileColorIndex: 0
      m_TileObjectToInstantiateIndex: 65535
      m_AllTileFlags: 1073741825
  - first: {x: 5, y: 0, z: 0}
    second:
      serializedVersion: 2
      m_TileIndex: 31
      m_TileSpriteIndex: 31
      m_TileMatrixIndex: 0
      m_TileColorIndex: 0
      m_TileObjectToInstantiateIndex: 65535
      m_AllTileFlags: 1073741825
  - first: {x: 6, y: 0, z: 0}
    second:
      serializedVersion: 2
      m_TileIndex: 32
      m_TileSpriteIndex: 32
      m_TileMatrixIndex: 0
      m_TileColorIndex: 0
      m_TileObjectToInstantiateIndex: 65535
      m_AllTileFlags: 1073741825
  - first: {x: 7, y: 0, z: 0}
    second:
      serializedVersion: 2
      m_TileIndex: 33
      m_TileSpriteIndex: 33
      m_TileMatrixIndex: 0
      m_TileColorIndex: 0
      m_TileObjectToInstantiateIndex: 65535
      m_AllTileFlags: 1073741825
  - first: {x: 8, y: 0, z: 0}
    second:
      serializedVersion: 2
      m_TileIndex: 16
      m_TileSpriteIndex: 16
      m_TileMatrixIndex: 0
      m_TileColorIndex: 0
      m_TileObjectToInstantiateIndex: 65535
      m_AllTileFlags: 1073741825
  - first: {x: -1, y: 1, z: 0}
    second:
      serializedVersion: 2
      m_TileIndex: 18
      m_TileSpriteIndex: 18
      m_TileMatrixIndex: 0
      m_TileColorIndex: 0
      m_TileObjectToInstantiateIndex: 65535
      m_AllTileFlags: 1073741825
  - first: {x: 0, y: 1, z: 0}
    second:
      serializedVersion: 2
      m_TileIndex: 19
      m_TileSpriteIndex: 19
      m_TileMatrixIndex: 0
      m_TileColorIndex: 0
      m_TileObjectToInstantiateIndex: 65535
      m_AllTileFlags: 1073741825
  - first: {x: 1, y: 1, z: 0}
    second:
      serializedVersion: 2
      m_TileIndex: 50
      m_TileSpriteIndex: 50
      m_TileMatrixIndex: 0
      m_TileColorIndex: 0
      m_TileObjectToInstantiateIndex: 65535
      m_AllTileFlags: 1073741825
  - first: {x: 2, y: 1, z: 0}
    second:
      serializedVersion: 2
      m_TileIndex: 49
      m_TileSpriteIndex: 49
      m_TileMatrixIndex: 0
      m_TileColorIndex: 0
      m_TileObjectToInstantiateIndex: 65535
      m_AllTileFlags: 1073741825
  - first: {x: 3, y: 1, z: 0}
    second:
      serializedVersion: 2
      m_TileIndex: 20
      m_TileSpriteIndex: 20
      m_TileMatrixIndex: 0
      m_TileColorIndex: 0
      m_TileObjectToInstantiateIndex: 65535
      m_AllTileFlags: 1073741825
  - first: {x: 6, y: 1, z: 0}
    second:
      serializedVersion: 2
      m_TileIndex: 21
      m_TileSpriteIndex: 21
      m_TileMatrixIndex: 0
      m_TileColorIndex: 0
      m_TileObjectToInstantiateIndex: 65535
      m_AllTileFlags: 1073741825
  - first: {x: 7, y: 1, z: 0}
    second:
      serializedVersion: 2
      m_TileIndex: 22
      m_TileSpriteIndex: 22
      m_TileMatrixIndex: 0
      m_TileColorIndex: 0
      m_TileObjectToInstantiateIndex: 65535
      m_AllTileFlags: 1073741825
  - first: {x: 8, y: 1, z: 0}
    second:
      serializedVersion: 2
      m_TileIndex: 23
      m_TileSpriteIndex: 23
      m_TileMatrixIndex: 0
      m_TileColorIndex: 0
      m_TileObjectToInstantiateIndex: 65535
      m_AllTileFlags: 1073741825
  - first: {x: 9, y: 1, z: 0}
    second:
      serializedVersion: 2
      m_TileIndex: 24
      m_TileSpriteIndex: 24
      m_TileMatrixIndex: 0
      m_TileColorIndex: 0
      m_TileObjectToInstantiateIndex: 65535
      m_AllTileFlags: 1073741825
  - first: {x: -1, y: 2, z: 0}
    second:
      serializedVersion: 2
      m_TileIndex: 8
      m_TileSpriteIndex: 8
      m_TileMatrixIndex: 0
      m_TileColorIndex: 0
      m_TileObjectToInstantiateIndex: 65535
      m_AllTileFlags: 1073741825
  - first: {x: 0, y: 2, z: 0}
    second:
      serializedVersion: 2
      m_TileIndex: 9
      m_TileSpriteIndex: 9
      m_TileMatrixIndex: 0
      m_TileColorIndex: 0
      m_TileObjectToInstantiateIndex: 65535
      m_AllTileFlags: 1073741825
  - first: {x: 1, y: 2, z: 0}
    second:
      serializedVersion: 2
      m_TileIndex: 10
      m_TileSpriteIndex: 10
      m_TileMatrixIndex: 0
      m_TileColorIndex: 0
      m_TileObjectToInstantiateIndex: 65535
      m_AllTileFlags: 1073741825
  - first: {x: 2, y: 2, z: 0}
    second:
      serializedVersion: 2
      m_TileIndex: 52
      m_TileSpriteIndex: 52
      m_TileMatrixIndex: 0
      m_TileColorIndex: 0
      m_TileObjectToInstantiateIndex: 65535
      m_AllTileFlags: 1073741825
  - first: {x: 3, y: 2, z: 0}
    second:
      serializedVersion: 2
      m_TileIndex: 11
      m_TileSpriteIndex: 11
      m_TileMatrixIndex: 0
      m_TileColorIndex: 0
      m_TileObjectToInstantiateIndex: 65535
      m_AllTileFlags: 1073741825
  - first: {x: 4, y: 2, z: 0}
    second:
      serializedVersion: 2
      m_TileIndex: 12
      m_TileSpriteIndex: 12
      m_TileMatrixIndex: 0
      m_TileColorIndex: 0
      m_TileObjectToInstantiateIndex: 65535
      m_AllTileFlags: 1073741825
  - first: {x: 5, y: 2, z: 0}
    second:
      serializedVersion: 2
      m_TileIndex: 48
      m_TileSpriteIndex: 48
      m_TileMatrixIndex: 0
      m_TileColorIndex: 0
      m_TileObjectToInstantiateIndex: 65535
      m_AllTileFlags: 1073741825
  - first: {x: 6, y: 2, z: 0}
    second:
      serializedVersion: 2
      m_TileIndex: 13
      m_TileSpriteIndex: 13
      m_TileMatrixIndex: 0
      m_TileColorIndex: 0
      m_TileObjectToInstantiateIndex: 65535
      m_AllTileFlags: 1073741825
  - first: {x: 7, y: 2, z: 0}
    second:
      serializedVersion: 2
      m_TileIndex: 14
      m_TileSpriteIndex: 14
      m_TileMatrixIndex: 0
      m_TileColorIndex: 0
      m_TileObjectToInstantiateIndex: 65535
      m_AllTileFlags: 1073741825
  - first: {x: 8, y: 2, z: 0}
    second:
      serializedVersion: 2
      m_TileIndex: 15
      m_TileSpriteIndex: 15
      m_TileMatrixIndex: 0
      m_TileColorIndex: 0
      m_TileObjectToInstantiateIndex: 65535
      m_AllTileFlags: 1073741825
  - first: {x: 9, y: 2, z: 0}
    second:
      serializedVersion: 2
      m_TileIndex: 17
      m_TileSpriteIndex: 17
      m_TileMatrixIndex: 0
      m_TileColorIndex: 0
      m_TileObjectToInstantiateIndex: 65535
      m_AllTileFlags: 1073741825
  - first: {x: -1, y: 3, z: 0}
    second:
      serializedVersion: 2
      m_TileIndex: 54
      m_TileSpriteIndex: 54
      m_TileMatrixIndex: 0
      m_TileColorIndex: 0
      m_TileObjectToInstantiateIndex: 65535
      m_AllTileFlags: 1073741825
  - first: {x: 0, y: 3, z: 0}
    second:
      serializedVersion: 2
      m_TileIndex: 59
      m_TileSpriteIndex: 59
      m_TileMatrixIndex: 0
      m_TileColorIndex: 0
      m_TileObjectToInstantiateIndex: 65535
      m_AllTileFlags: 1073741825
  - first: {x: 1, y: 3, z: 0}
    second:
      serializedVersion: 2
      m_TileIndex: 0
      m_TileSpriteIndex: 0
      m_TileMatrixIndex: 0
      m_TileColorIndex: 0
      m_TileObjectToInstantiateIndex: 65535
      m_AllTileFlags: 1073741825
  - first: {x: 2, y: 3, z: 0}
    second:
      serializedVersion: 2
      m_TileIndex: 1
      m_TileSpriteIndex: 1
      m_TileMatrixIndex: 0
      m_TileColorIndex: 0
      m_TileObjectToInstantiateIndex: 65535
      m_AllTileFlags: 1073741825
  - first: {x: 3, y: 3, z: 0}
    second:
      serializedVersion: 2
      m_TileIndex: 2
      m_TileSpriteIndex: 2
      m_TileMatrixIndex: 0
      m_TileColorIndex: 0
      m_TileObjectToInstantiateIndex: 65535
      m_AllTileFlags: 1073741825
  - first: {x: 4, y: 3, z: 0}
    second:
      serializedVersion: 2
      m_TileIndex: 3
      m_TileSpriteIndex: 3
      m_TileMatrixIndex: 0
      m_TileColorIndex: 0
      m_TileObjectToInstantiateIndex: 65535
      m_AllTileFlags: 1073741825
  - first: {x: 5, y: 3, z: 0}
    second:
      serializedVersion: 2
      m_TileIndex: 4
      m_TileSpriteIndex: 4
      m_TileMatrixIndex: 0
      m_TileColorIndex: 0
      m_TileObjectToInstantiateIndex: 65535
      m_AllTileFlags: 1073741825
  - first: {x: 6, y: 3, z: 0}
    second:
      serializedVersion: 2
      m_TileIndex: 60
      m_TileSpriteIndex: 60
      m_TileMatrixIndex: 0
      m_TileColorIndex: 0
      m_TileObjectToInstantiateIndex: 65535
      m_AllTileFlags: 1073741825
  - first: {x: 7, y: 3, z: 0}
    second:
      serializedVersion: 2
      m_TileIndex: 5
      m_TileSpriteIndex: 5
      m_TileMatrixIndex: 0
      m_TileColorIndex: 0
      m_TileObjectToInstantiateIndex: 65535
      m_AllTileFlags: 1073741825
  - first: {x: 3, y: 6, z: 0}
    second:
      serializedVersion: 2
      m_TileIndex: 56
      m_TileSpriteIndex: 56
      m_TileMatrixIndex: 0
      m_TileColorIndex: 0
      m_TileObjectToInstantiateIndex: 65535
      m_AllTileFlags: 1073741825
  - first: {x: 4, y: 6, z: 0}
    second:
      serializedVersion: 2
      m_TileIndex: 51
      m_TileSpriteIndex: 51
      m_TileMatrixIndex: 0
      m_TileColorIndex: 0
      m_TileObjectToInstantiateIndex: 65535
      m_AllTileFlags: 1073741825
  - first: {x: 3, y: 7, z: 0}
    second:
      serializedVersion: 2
      m_TileIndex: 45
      m_TileSpriteIndex: 45
      m_TileMatrixIndex: 0
      m_TileColorIndex: 0
      m_TileObjectToInstantiateIndex: 65535
      m_AllTileFlags: 1073741825
  - first: {x: 4, y: 7, z: 0}
    second:
      serializedVersion: 2
      m_TileIndex: 41
      m_TileSpriteIndex: 41
      m_TileMatrixIndex: 0
      m_TileColorIndex: 0
      m_TileObjectToInstantiateIndex: 65535
      m_AllTileFlags: 1073741825
  - first: {x: 3, y: 8, z: 0}
    second:
      serializedVersion: 2
      m_TileIndex: 16
      m_TileSpriteIndex: 16
      m_TileMatrixIndex: 0
      m_TileColorIndex: 0
      m_TileObjectToInstantiateIndex: 65535
      m_AllTileFlags: 1073741825
  - first: {x: 4, y: 8, z: 0}
    second:
      serializedVersion: 2
      m_TileIndex: 42
      m_TileSpriteIndex: 42
      m_TileMatrixIndex: 0
      m_TileColorIndex: 0
      m_TileObjectToInstantiateIndex: 65535
      m_AllTileFlags: 1073741825
  m_AnimatedTiles: {}
  m_TileAssetArray:
  - m_RefCount: 1
    m_Data: {fileID: 11400000, guid: f8cd72ca22fe033408363176dc058edd, type: 2}
  - m_RefCount: 1
    m_Data: {fileID: 11400000, guid: b1a281ad18b45014a85c57627c91861a, type: 2}
  - m_RefCount: 1
    m_Data: {fileID: 11400000, guid: dd83198ad13ee154782a1016a3de275a, type: 2}
  - m_RefCount: 1
    m_Data: {fileID: 11400000, guid: 5b78d82641dd86b4a9258781ddb8144a, type: 2}
  - m_RefCount: 1
    m_Data: {fileID: 11400000, guid: 785ed57255d0b0347a6bcd03fe3d09a8, type: 2}
  - m_RefCount: 1
    m_Data: {fileID: 11400000, guid: 3d5b6a6c7bf7e7d4a8115ba9c503bda8, type: 2}
  - m_RefCount: 1
    m_Data: {fileID: 11400000, guid: 6780757ea03a3fd488ab336a22c29ac1, type: 2}
  - m_RefCount: 1
    m_Data: {fileID: 11400000, guid: 087dbcd002c2fe747b047d30f2fd1b82, type: 2}
  - m_RefCount: 1
    m_Data: {fileID: 11400000, guid: 76abb7be9bb6f5948b1982c61cca08bb, type: 2}
  - m_RefCount: 1
    m_Data: {fileID: 11400000, guid: ebb49c39b39750545a0bdf7ee86c99c2, type: 2}
  - m_RefCount: 1
    m_Data: {fileID: 11400000, guid: fb515a7259662ec409e787122fb9129b, type: 2}
  - m_RefCount: 1
    m_Data: {fileID: 11400000, guid: d7633223e8b6ede4e826f4d96d54143b, type: 2}
  - m_RefCount: 1
    m_Data: {fileID: 11400000, guid: a5edfd96e1c534a42a1c473dd50aff0e, type: 2}
  - m_RefCount: 1
    m_Data: {fileID: 11400000, guid: bcd41517709f57749b301ae49041f9f2, type: 2}
  - m_RefCount: 1
    m_Data: {fileID: 11400000, guid: 5072836540087e64eb77cd2f03f379c2, type: 2}
  - m_RefCount: 1
    m_Data: {fileID: 11400000, guid: 24ee25f0752548245b1b58ceb4a18417, type: 2}
  - m_RefCount: 2
    m_Data: {fileID: 11400000, guid: fc2474d6d1c6e7646a71db23c44c4c5d, type: 2}
  - m_RefCount: 1
    m_Data: {fileID: 11400000, guid: 5f15b3dab5338ad44ade226389fd3181, type: 2}
  - m_RefCount: 1
    m_Data: {fileID: 11400000, guid: 0cc8e9d66516d3c4ca00244739cdb131, type: 2}
  - m_RefCount: 1
    m_Data: {fileID: 11400000, guid: e64c0dfa724bbcd4693370ecf92b10a9, type: 2}
  - m_RefCount: 1
    m_Data: {fileID: 11400000, guid: 50326f722bb5c764d84f6fb97e978579, type: 2}
  - m_RefCount: 1
    m_Data: {fileID: 11400000, guid: b221ae22c8a5f8e4f8d7e611c282a0a3, type: 2}
  - m_RefCount: 1
    m_Data: {fileID: 11400000, guid: 4a7895c5b5cb9094d8d9fc14a108ba83, type: 2}
  - m_RefCount: 1
    m_Data: {fileID: 11400000, guid: 99e59b040ba2fee4cb632358e2d6c0c9, type: 2}
  - m_RefCount: 1
    m_Data: {fileID: 11400000, guid: ca0a3b182fabead418ab49f10ec6948f, type: 2}
  - m_RefCount: 1
    m_Data: {fileID: 11400000, guid: c2bfb50cb30820f44ada203e4a2c84de, type: 2}
  - m_RefCount: 1
    m_Data: {fileID: 11400000, guid: fde3a7cd79b31104da1ded09de2e0932, type: 2}
  - m_RefCount: 1
    m_Data: {fileID: 11400000, guid: a416b848ac03d0f40935318adecc5e06, type: 2}
  - m_RefCount: 1
    m_Data: {fileID: 11400000, guid: 732bb45317b461f419bbac002d3ce2e1, type: 2}
  - m_RefCount: 1
    m_Data: {fileID: 11400000, guid: 1672437533f66d243980dac2ab512362, type: 2}
  - m_RefCount: 1
    m_Data: {fileID: 11400000, guid: 57f874d9a0fda364ea4076694197c182, type: 2}
  - m_RefCount: 1
    m_Data: {fileID: 11400000, guid: 2e37715ec379d204eb776887ac71bda9, type: 2}
  - m_RefCount: 1
    m_Data: {fileID: 11400000, guid: 5ed67ecfa457f234e96bce336cb20775, type: 2}
  - m_RefCount: 1
    m_Data: {fileID: 11400000, guid: 7abc37399b167434792ad3e855343584, type: 2}
  - m_RefCount: 1
    m_Data: {fileID: 11400000, guid: 7c376bddec68ff84cb8b4f45498eb33d, type: 2}
  - m_RefCount: 1
    m_Data: {fileID: 11400000, guid: e47f2e1c5f99ee041926d8c7e5938e0a, type: 2}
  - m_RefCount: 1
    m_Data: {fileID: 11400000, guid: c00e9e096d8c25b459d13494c61c4f17, type: 2}
  - m_RefCount: 1
    m_Data: {fileID: 11400000, guid: b69966e89a0afaa46ad24787a67d55a2, type: 2}
  - m_RefCount: 1
    m_Data: {fileID: 11400000, guid: 6c9898ce1d4b2d84b89e6eef8a0af054, type: 2}
  - m_RefCount: 1
    m_Data: {fileID: 11400000, guid: c0bac89c886e955459288b6f7f92ca0f, type: 2}
  - m_RefCount: 1
    m_Data: {fileID: 11400000, guid: a01ab3902a038824e9bd7202dd62136e, type: 2}
  - m_RefCount: 2
    m_Data: {fileID: 11400000, guid: 653c301575143164a8c482b05122cb91, type: 2}
  - m_RefCount: 2
    m_Data: {fileID: 11400000, guid: facb50d679c0a8947a3b4abdc0317499, type: 2}
  - m_RefCount: 1
    m_Data: {fileID: 11400000, guid: 8344d25fb47c91a49bdfa169299a2f52, type: 2}
  - m_RefCount: 1
    m_Data: {fileID: 11400000, guid: 2f99b8b38a7551e4bb9ec5aebdd23e74, type: 2}
  - m_RefCount: 2
    m_Data: {fileID: 11400000, guid: d58e20acc79d0bd4bac86b1adac85697, type: 2}
  - m_RefCount: 1
    m_Data: {fileID: 11400000, guid: 9bb6c945b7f5c184f8d163868a5302ef, type: 2}
  - m_RefCount: 1
    m_Data: {fileID: 11400000, guid: 17812a871e6410444b9902074d4255b0, type: 2}
  - m_RefCount: 1
    m_Data: {fileID: 11400000, guid: 707fce858c08dd44e8029877f166c637, type: 2}
  - m_RefCount: 1
    m_Data: {fileID: 11400000, guid: 9882e0b100c29664f8b472704a1306be, type: 2}
  - m_RefCount: 1
    m_Data: {fileID: 11400000, guid: 324e66a5e8ea5c241a10b0fbdfd97895, type: 2}
  - m_RefCount: 2
    m_Data: {fileID: 11400000, guid: 75d97b29165ae8f4c897fd777c495a6b, type: 2}
  - m_RefCount: 1
    m_Data: {fileID: 11400000, guid: edde0479d2eedb44eb7da6a9a7e967f3, type: 2}
  - m_RefCount: 1
    m_Data: {fileID: 11400000, guid: 5cb365f5f1f9f824f87235a17f2848cc, type: 2}
  - m_RefCount: 1
    m_Data: {fileID: 11400000, guid: b108df9b406083a43be92dd04cd6a41c, type: 2}
  - m_RefCount: 1
    m_Data: {fileID: 11400000, guid: b12d309233586cd44964131a1ca5c1d2, type: 2}
  - m_RefCount: 2
    m_Data: {fileID: 11400000, guid: 7b954416582125b418e14f691be62009, type: 2}
  - m_RefCount: 1
    m_Data: {fileID: 11400000, guid: 39830c145d9aab141bec324871983aaf, type: 2}
  - m_RefCount: 1
    m_Data: {fileID: 11400000, guid: 80236ae6592699f48b8b241276f5e007, type: 2}
  - m_RefCount: 1
    m_Data: {fileID: 11400000, guid: 10455e3850d6825439c0d408920464af, type: 2}
  - m_RefCount: 1
    m_Data: {fileID: 11400000, guid: 26aab69fdcb4d4a42acc139051cec9ce, type: 2}
  m_TileSpriteArray:
  - m_RefCount: 1
    m_Data: {fileID: 21300004, guid: 76d01bb5fdf078d48bfc766555080d43, type: 3}
  - m_RefCount: 1
    m_Data: {fileID: 21300006, guid: 76d01bb5fdf078d48bfc766555080d43, type: 3}
  - m_RefCount: 1
    m_Data: {fileID: 21300008, guid: 76d01bb5fdf078d48bfc766555080d43, type: 3}
  - m_RefCount: 1
    m_Data: {fileID: 21300010, guid: 76d01bb5fdf078d48bfc766555080d43, type: 3}
  - m_RefCount: 1
    m_Data: {fileID: 21300012, guid: 76d01bb5fdf078d48bfc766555080d43, type: 3}
  - m_RefCount: 1
    m_Data: {fileID: 21300016, guid: 76d01bb5fdf078d48bfc766555080d43, type: 3}
  - m_RefCount: 1
    m_Data: {fileID: 21300102, guid: 76d01bb5fdf078d48bfc766555080d43, type: 3}
  - m_RefCount: 1
    m_Data: {fileID: 21300100, guid: 76d01bb5fdf078d48bfc766555080d43, type: 3}
  - m_RefCount: 1
    m_Data: {fileID: 21300018, guid: 76d01bb5fdf078d48bfc766555080d43, type: 3}
  - m_RefCount: 1
    m_Data: {fileID: 21300020, guid: 76d01bb5fdf078d48bfc766555080d43, type: 3}
  - m_RefCount: 1
    m_Data: {fileID: 21300022, guid: 76d01bb5fdf078d48bfc766555080d43, type: 3}
  - m_RefCount: 1
    m_Data: {fileID: 21300026, guid: 76d01bb5fdf078d48bfc766555080d43, type: 3}
  - m_RefCount: 1
    m_Data: {fileID: 21300028, guid: 76d01bb5fdf078d48bfc766555080d43, type: 3}
  - m_RefCount: 1
    m_Data: {fileID: 21300032, guid: 76d01bb5fdf078d48bfc766555080d43, type: 3}
  - m_RefCount: 1
    m_Data: {fileID: 21300034, guid: 76d01bb5fdf078d48bfc766555080d43, type: 3}
  - m_RefCount: 1
    m_Data: {fileID: 21300036, guid: 76d01bb5fdf078d48bfc766555080d43, type: 3}
  - m_RefCount: 2
    m_Data: {fileID: 21300078, guid: 76d01bb5fdf078d48bfc766555080d43, type: 3}
  - m_RefCount: 1
    m_Data: {fileID: 21300038, guid: 76d01bb5fdf078d48bfc766555080d43, type: 3}
  - m_RefCount: 1
    m_Data: {fileID: 21300040, guid: 76d01bb5fdf078d48bfc766555080d43, type: 3}
  - m_RefCount: 1
    m_Data: {fileID: 21300042, guid: 76d01bb5fdf078d48bfc766555080d43, type: 3}
  - m_RefCount: 1
    m_Data: {fileID: 21300048, guid: 76d01bb5fdf078d48bfc766555080d43, type: 3}
  - m_RefCount: 1
    m_Data: {fileID: 21300050, guid: 76d01bb5fdf078d48bfc766555080d43, type: 3}
  - m_RefCount: 1
    m_Data: {fileID: 21300052, guid: 76d01bb5fdf078d48bfc766555080d43, type: 3}
  - m_RefCount: 1
    m_Data: {fileID: 21300054, guid: 76d01bb5fdf078d48bfc766555080d43, type: 3}
  - m_RefCount: 1
    m_Data: {fileID: 21300056, guid: 76d01bb5fdf078d48bfc766555080d43, type: 3}
  - m_RefCount: 1
    m_Data: {fileID: 21300060, guid: 76d01bb5fdf078d48bfc766555080d43, type: 3}
  - m_RefCount: 1
    m_Data: {fileID: 21300062, guid: 76d01bb5fdf078d48bfc766555080d43, type: 3}
  - m_RefCount: 1
    m_Data: {fileID: 21300064, guid: 76d01bb5fdf078d48bfc766555080d43, type: 3}
  - m_RefCount: 1
    m_Data: {fileID: 21300066, guid: 76d01bb5fdf078d48bfc766555080d43, type: 3}
  - m_RefCount: 1
    m_Data: {fileID: 21300068, guid: 76d01bb5fdf078d48bfc766555080d43, type: 3}
  - m_RefCount: 1
    m_Data: {fileID: 21300070, guid: 76d01bb5fdf078d48bfc766555080d43, type: 3}
  - m_RefCount: 1
    m_Data: {fileID: 21300072, guid: 76d01bb5fdf078d48bfc766555080d43, type: 3}
  - m_RefCount: 1
    m_Data: {fileID: 21300074, guid: 76d01bb5fdf078d48bfc766555080d43, type: 3}
  - m_RefCount: 1
    m_Data: {fileID: 21300076, guid: 76d01bb5fdf078d48bfc766555080d43, type: 3}
  - m_RefCount: 1
    m_Data: {fileID: 21300080, guid: 76d01bb5fdf078d48bfc766555080d43, type: 3}
  - m_RefCount: 1
    m_Data: {fileID: 21300082, guid: 76d01bb5fdf078d48bfc766555080d43, type: 3}
  - m_RefCount: 1
    m_Data: {fileID: 21300084, guid: 76d01bb5fdf078d48bfc766555080d43, type: 3}
  - m_RefCount: 1
    m_Data: {fileID: 21300086, guid: 76d01bb5fdf078d48bfc766555080d43, type: 3}
  - m_RefCount: 1
    m_Data: {fileID: 21300088, guid: 76d01bb5fdf078d48bfc766555080d43, type: 3}
  - m_RefCount: 1
    m_Data: {fileID: 21300090, guid: 76d01bb5fdf078d48bfc766555080d43, type: 3}
  - m_RefCount: 1
    m_Data: {fileID: 21300092, guid: 76d01bb5fdf078d48bfc766555080d43, type: 3}
  - m_RefCount: 2
    m_Data: {fileID: 21300096, guid: 76d01bb5fdf078d48bfc766555080d43, type: 3}
  - m_RefCount: 2
    m_Data: {fileID: 21300098, guid: 76d01bb5fdf078d48bfc766555080d43, type: 3}
  - m_RefCount: 1
    m_Data: {fileID: 21300114, guid: 76d01bb5fdf078d48bfc766555080d43, type: 3}
  - m_RefCount: 1
    m_Data: {fileID: 21300116, guid: 76d01bb5fdf078d48bfc766555080d43, type: 3}
  - m_RefCount: 2
    m_Data: {fileID: 21300118, guid: 76d01bb5fdf078d48bfc766555080d43, type: 3}
  - m_RefCount: 1
    m_Data: {fileID: 21300120, guid: 76d01bb5fdf078d48bfc766555080d43, type: 3}
  - m_RefCount: 1
    m_Data: {fileID: 21300058, guid: 76d01bb5fdf078d48bfc766555080d43, type: 3}
  - m_RefCount: 1
    m_Data: {fileID: 21300030, guid: 76d01bb5fdf078d48bfc766555080d43, type: 3}
  - m_RefCount: 1
    m_Data: {fileID: 21300046, guid: 76d01bb5fdf078d48bfc766555080d43, type: 3}
  - m_RefCount: 1
    m_Data: {fileID: 21300044, guid: 76d01bb5fdf078d48bfc766555080d43, type: 3}
  - m_RefCount: 2
    m_Data: {fileID: 21300106, guid: 76d01bb5fdf078d48bfc766555080d43, type: 3}
  - m_RefCount: 1
    m_Data: {fileID: 21300024, guid: 76d01bb5fdf078d48bfc766555080d43, type: 3}
  - m_RefCount: 1
    m_Data: {fileID: 21300110, guid: 76d01bb5fdf078d48bfc766555080d43, type: 3}
  - m_RefCount: 1
    m_Data: {fileID: 21300000, guid: 76d01bb5fdf078d48bfc766555080d43, type: 3}
  - m_RefCount: 1
    m_Data: {fileID: 21300094, guid: 76d01bb5fdf078d48bfc766555080d43, type: 3}
  - m_RefCount: 2
    m_Data: {fileID: 21300104, guid: 76d01bb5fdf078d48bfc766555080d43, type: 3}
  - m_RefCount: 1
    m_Data: {fileID: 21300108, guid: 76d01bb5fdf078d48bfc766555080d43, type: 3}
  - m_RefCount: 1
    m_Data: {fileID: 21300112, guid: 76d01bb5fdf078d48bfc766555080d43, type: 3}
  - m_RefCount: 1
    m_Data: {fileID: 21300002, guid: 76d01bb5fdf078d48bfc766555080d43, type: 3}
  - m_RefCount: 1
    m_Data: {fileID: 21300014, guid: 76d01bb5fdf078d48bfc766555080d43, type: 3}
  m_TileMatrixArray:
  - m_RefCount: 67
    m_Data:
      e00: 1
      e01: 0
      e02: 0
      e03: 0
      e10: 0
      e11: 1
      e12: 0
      e13: 0
      e20: 0
      e21: 0
      e22: 1
      e23: 0
      e30: 0
      e31: 0
      e32: 0
      e33: 1
  m_TileColorArray:
  - m_RefCount: 67
    m_Data: {r: 1, g: 1, b: 1, a: 1}
  m_TileObjectToInstantiateArray: []
  m_AnimationFrameRate: 1
  m_Color: {r: 1, g: 1, b: 1, a: 1}
  m_Origin: {x: -3, y: -5, z: 0}
  m_Size: {x: 15, y: 14, z: 1}
  m_TileAnchor: {x: 0.5, y: 0.5, z: 0}
  m_TileOrientation: 0
  m_TileOrientationMatrix:
    e00: 1
    e01: 0
    e02: 0
    e03: 0
    e10: 0
    e11: 1
    e12: 0
    e13: 0
    e20: 0
    e21: 0
    e22: 1
    e23: 0
    e30: 0
    e31: 0
    e32: 0
    e33: 1
--- !u!483693784 &1667234207305222720
TilemapRenderer:
  m_ObjectHideFlags: 0
  m_CorrespondingSourceObject: {fileID: 0}
  m_PrefabInstance: {fileID: 0}
  m_PrefabAsset: {fileID: 0}
  m_GameObject: {fileID: 8463560067313782981}
  m_Enabled: 0
  m_CastShadows: 0
  m_ReceiveShadows: 0
  m_DynamicOccludee: 0
  m_MotionVectors: 1
  m_LightProbeUsage: 0
  m_ReflectionProbeUsage: 0
  m_RayTracingMode: 0
  m_RenderingLayerMask: 1
  m_RendererPriority: 0
  m_Materials:
  - {fileID: 10754, guid: 0000000000000000f000000000000000, type: 0}
  m_StaticBatchInfo:
    firstSubMesh: 0
    subMeshCount: 0
  m_StaticBatchRoot: {fileID: 0}
  m_ProbeAnchor: {fileID: 0}
  m_LightProbeVolumeOverride: {fileID: 0}
  m_ScaleInLightmap: 1
  m_ReceiveGI: 1
  m_PreserveUVs: 0
  m_IgnoreNormalsForChartDetection: 0
  m_ImportantGI: 0
  m_StitchLightmapSeams: 1
  m_SelectedEditorRenderState: 0
  m_MinimumChartSize: 4
  m_AutoUVMaxDistance: 0.5
  m_AutoUVMaxAngle: 89
  m_LightmapParameters: {fileID: 0}
  m_SortingLayerID: 0
  m_SortingLayer: 0
  m_SortingOrder: 0
  m_ChunkSize: {x: 32, y: 32, z: 32}
  m_ChunkCullingBounds: {x: 0, y: 0, z: 0}
  m_MaxChunkCount: 16
  m_MaxFrameAge: 16
  m_SortOrder: 0
  m_Mode: 0
  m_DetectChunkCullingBounds: 0
  m_MaskInteraction: 0
--- !u!114 &7953757197998623032
MonoBehaviour:
  m_ObjectHideFlags: 0
  m_CorrespondingSourceObject: {fileID: 0}
  m_PrefabInstance: {fileID: 0}
  m_PrefabAsset: {fileID: 0}
  m_GameObject: {fileID: 0}
  m_Enabled: 1
  m_EditorHideFlags: 0
  m_Script: {fileID: 12395, guid: 0000000000000000e000000000000000, type: 0}
  m_Name: Palette Settings
  m_EditorClassIdentifier: 
  cellSizing: 0
